{
    "hashes": {
        "appinfo\/info.xml": "a17b7247559b0a3eee9f488b3aa7c69bf725101674fb5a7d346b45712fdb55caced5218d04946761bc53b51f92918a040e84cc028031a7b55dfaedfa3412e210",
        "appinfo\/routes.php": "5f667a9db37c33a360757bf8ebbd0c32a322d0ac8ce0d61d99a88f485e3d81e6383a7ca1d43a88674f716d4a919a2b0fc5e43a6026c977dc5b873c1818325974",
        "img\/app-dark.svg": "8377791302e76d6f95838b3e24d2c17da5d566474052fb346ad9c74ba125d9682af58213831df10f8139253818d4261eb3efb6af61547cd090cc8bfe50e8e9c5",
        "img\/app.svg": "797134a4769921103f01cc94484976a201410a61ded6fd965154a7ca05d0a4cdd5f69d1831955386497d5dd8ba67a4af551bf8d5bb845cc1221ab65bdc99fce5",
        "img\/cloud-cloud.svg": "3f0d3fc6187933ec98347c898d8ac83e6c1ddb7f7589b7c0cb1691f466d4b205fac454b66eb7745170600edac6b4c945cd45b5d01a8940e73779964750ae8efb",
        "img\/cloud-dots.svg": "4cc51855a68e63002b763bc18d0abc80ec1711ef7839ee1a8041ce47eedf81cbe6d99458bddc01ea851a4716ab945119a1d0b96670fb9ae1914846de68b9c2c8",
        "img\/cross.svg": "49dedcb4f7e375b8c5023b4e7a40fa957b660b50f67cf526638a0f171bd9c8bd00749670786ee4bded679116757b2ff6df47ea3be300b9de62e745d24398d57b",
        "img\/drop.svg": "412cafd1492c4be78493320de3d760fae2ac5a27ad49a7761640970ecd0481423abceb9c114a4fb04951ae807c35de4238572c5e9e42010fd006b5dd3983f4cb",
        "img\/fog.svg": "8d4a792eee4034037f8bf3b7e1254c3a01d5fc48373ce2631d307b50f49816876b3a60e94f34336ac2e8ff4c28c95ce1c934af26123f972aacc76fa1deca77a6",
        "img\/half-sun.svg": "9464812e23bc0953a6a6e73db132e4c65c0d406c2bccf584ff4abde1d3c3919a039fb995c310f9e601dcebc613b31467a60f60e9379a23175575a895738707cb",
        "img\/heavy-rain.svg": "3cf530abdaf9928d5be61a06f5343fb1664243ef0020be9916bb1d13c9afa5fb4167a07410a71d05826118ad1c03fa50b390dd60a984cbc2a54281d8e9e61969",
        "img\/light-rain.svg": "65aac088c2d265b9dadeca827cf2d2d13644a5a05d1bf0882281089f4950bafb468d64ae403294f6a700fe6270a3e2fbdf86afb58eac8fbc79dfe68822a9ca76",
        "img\/moon-cloud-heavy-rain.svg": "65cdc8d257dbc72d4dcbbcf76cac316f31d2423c3e7f1d6d51fb31d6558a1ca399790e8765819b7028986b2a90d5628f8e78cc8dbeaeadbfa7554146f55e4b32",
        "img\/moon-cloud-light-rain.svg": "50f44bbfe96448e20984f50958e52cf3d3e0618c35c619b144eb334a141e25465104f0ed42465882699f502eaa56790aefb42eb2886d08f9da9213ba9637bccc",
        "img\/moon-cloud-rain.svg": "f0792cea5d7fbfa94788a2c0f125c8f4d0a4b674f8cd346035d3273d0d8ff58c11cd27eeb703449f6361bbe083f318017ee985e208944f9f84da0f79430fcbc2",
        "img\/moon-cloud.svg": "69d9cea7f7379a7a288d8bcc695dcd57e1f50bc2dc5349ce32cb5144e81015564368a2012e467837be0836f4c85560a76f3d76152f8b6b27178118379bde7ece",
        "img\/moon-small-cloud.svg": "19f5b36336c1540bd9e748d8e08a58dd66b67719673f1e9cc06f3da4712a916fb5683dd10efc0be1251f3145c69c5f041064acc2b0d31a6e8921d86c00650bcf",
        "img\/moon.svg": "3c0584c8f39d7edcb5085a6cfe85f97030887de9771f044e689deed0a53a52a5a7d8d875884245fdecbd951d043592869e12e6054728e04277aa622218ed3c84",
        "img\/rain.svg": "faccc8f8638c8fb860d92c87977a604ab58b9fea645d25d0cc937a18b2461c41d10ceedc5421fb9d4edb5599d6657e9e4d00ace4d79c64a2d659a4ca9338a935",
        "img\/snow.svg": "ec6cba1da2991a82d606ea841a6ec40073da5589a1e05d0fa4067c77b9620a531aa728a3327fa7494dee04f36a4b0adbdc1ab256affc9c7b26e07740627ece1e",
        "img\/sun-cloud-heavy-rain.svg": "26bc96b406af010df118823d82c86688a6f9d5b0501d0f66ea1d9106fcaee68f9eb2b875ed21e9c314426431678083d89dc7d611c0da72103da3927222af1c7d",
        "img\/sun-cloud-light-rain.svg": "331d02091892d5ee716382405c62f08514b12eca68ca82ce022c057991492d175e29ca55ee549390b6df7093d16f7d18b0d8038b83e954d24180e1ab57c4c62e",
        "img\/sun-cloud-rain.svg": "9221db51c1b988b5e434e5fce7317822a4988600c51e106dc0fb39fe02a4d8af4a5338827f75a1bc948da1ceab53cf08d91fc3f4e0c02f61299fab4ac808ba6a",
        "img\/sun-cloud.svg": "7368c3d2b89a144935e0cf29d06722b5bab93d9d50baf3b4fca63059bd4f46bf1fbcff78d83c530b8eade6d88c7c12ead753d6dfe4c615d529f3756523340c28",
        "img\/sun-small-cloud.svg": "51ef4d5923c985e01c4e5e01276b27eb32040f6c37539eab6b491edf99f3215e7c4dce1417366fa1e63d95ac56c781963837918a545f7382f96d3f04955c0e7f",
        "img\/sun.svg": "64ccb44c7589a19273b6be13a52c877020b6e2a829cab76b237faf95b5938ab29753cea8563e54ce59e643b86221db2e2920a5d29923c0775126772e42280ead",
        "img\/thunder.svg": "d7890b9f74a53a8981e41dcfbfb89d08488fd58b0062060548907ef9bd712a5e88753989dfa0429b31586347942dd603e8237bc31df11c749315cc43aef8b85d",
        "img\/umbrella.svg": "bfede32046f396dc45d0665b8e83689ed0c5d5cd37d56fb6ae35e71403a13a21ebe0a3959cb561c1bcbc1cf86207203623f7a071968ba9375b4882c36f9cd096",
        "js\/weather-status.js": "a73691375046f189a70a6086ad791bb21b79ffe3be9d5d81766eee933abe268e3dd4de1eaad76da5251e2b501b94d7f784d6477c912374126e5a3101b3e989bb",
        "js\/weather-status.js.map": "323d91c96d6d6de297cba68d7852589c74b4cb6f3071b04afd4be4ff5903a88f5ab46eea7b26c87e1b806f4ac6ba10c1202546323ef91b8b0d51eef00badf050",
        "l10n\/ca.js": "92e072aba4ca7a70f3cd34dfb33cf469bb39e3d76e0375ff5fe732ad2f45acab1e77d8e10e9f9c7560a2d4b53b49c3e3a5f4b2347de9361c8c61ccc5718da695",
        "l10n\/ca.json": "7bb57d0cf585958542c4182635f163729df709aba294eb4ccba2e56a19feb942266393bf0ab37151988c1084a8927218c0c0629cf633542bc1f8e52e17cd4d18",
        "l10n\/cs.js": "9339653dfca62e388603133f78139853817f7906de9c8791d2cb188336142ee2e2cf5d71139252b142b1bee4d747327dea304548995ace3a86d7e923d7ad618b",
        "l10n\/cs.json": "ff248a16d603db7ee273a3ce1e99e2d2b9204b1e1f5aca5771d0a43f2742d5815310ca3ea6a98f11fe9e3320476592774d5240711c6fbdf4e9f7e3a839379a34",
        "l10n\/de.js": "d15da4b51fe68a249e0be6603a8fd50d74926cbc8b7fb600672727b488e5f37337569f22de1b7c4aefea12791a4bb028e1f0478d775d182c9f802f1d052d93ac",
        "l10n\/de.json": "ee0898ae71ce16a2827df854a23623ecc5abf071e35064bd33cd41a48956743bf92187f64da681435a15260373a81d9b9c8ea35dd2e874dea7b136f0cc13bd48",
        "l10n\/de_DE.js": "97604ec4b57a5aec6dbd206db640a970c8fb50c88d08749d978ae43ad250cfba7ee951c6e2457215a10318d5204a4dda9529d52f072d43cab714c90439ec5846",
        "l10n\/de_DE.json": "86fdb585b31383104c1936bb527a02aaa4bea2eafb41fa63c1e07087b8109ce88091ab61d20e53d8fe784d787775d8e4a200ae55d8eb1b123e3a0ec5f46d4d1a",
        "l10n\/el.js": "9f989d7c207c259c277e3705bec4ed1c6ec001900e4edec8bc521b3e08d27cce7e9884b8d0d851cab117a7c2c5391048ef323696745ef74b4645e9a7d8daae69",
        "l10n\/el.json": "780d99edaccdc6beb6a5b362ac193989098d12e2c5f6be2b554582b3a3f40a825dcc75496f31b4bc2277b191f3312d8727fe7c4e0bd3c1c437ff3de27efeada7",
        "l10n\/es.js": "a3dc0dc6d6a3341b2b2756cf5d7d4e3690acbb4c23c8e9a2f2653e59a397d9d5bc122e788d62cd403c6a804e62b6575b608ad52ecc07c31d39178af494a38cf7",
        "l10n\/es.json": "e8695fc687041f1ff56b09bf240ef3c8436937e8f33e1f4987537f719073386e292e55dcf105bb9ac7bd53ada08e27932d1c3002a3a54162919bd6a7ced0686d",
        "l10n\/fi.js": "53cf06de60a7c63a851cc65ebb26d4da7227e65b97e174e5b942268aa5de7c469708c430a71b1e1a340cf0ea6958b5c02a61ef641c5decf32deb555879320909",
        "l10n\/fi.json": "3f17bfa1bb57c523cd0885bd3745786007efb504cbac3350616f93cdfae97ccb898e6de7a69e913f13da60f6bb18ef356402621ef006e7300a45ee1ad701ef5c",
        "l10n\/fr.js": "069c55c8605af98cab0d050cf32466bbf9b817ecdf1ccdf3a6b175f64c72861bb2f1203b930c63d14aba613079f631597ebb0eb69e5cb5a3b3521dc5d0eb1349",
        "l10n\/fr.json": "6d7e8aa88df193751e98da2951c52ba992ac6d18f80af1b1414a986fde79a3bb90ecf0688017621a041d6ba9a89e679144d9be0454a28dcf9766c3326bf1f749",
        "l10n\/gl.js": "4561d0e4105fb8037f9884f88f95da176efcdb3a1c577d2d884c189866d4759138371e914cdefe91d9c36b9e527302a9efd12a9ad2235d2ea32e6db268950eaf",
        "l10n\/gl.json": "0ee8bffdcb6984ff0e83d409cc8a2396235d1a2eba8bf9fb8e1d62bb27de0ff932e3870528b3572d193d5a295fe729fecd702ec78d109755908c880d52809230",
        "l10n\/hr.js": "c517f7c6b50b5fa0c7b2ce7a79afdcf03a7af8bf8cb46d76033e430046bbde4f8fee9daa9859813ed7f4fba9c2e1577c3d60e2feb701e658ff8ec354d86b7c0d",
        "l10n\/hr.json": "c3ee387fa19069e54cc40f6a2da3c3aaa6dd3da56501ded3c2615d981f5435b80b133fab8b6921ef1d83f41ef729ccd189876aa28bfe7dea2f71966fe4934746",
        "l10n\/hu.js": "e468bfe3b65a3c009abffd92f94855dd91b7941f04446499ba08198b65c23c1a5c917dd9a348e8768a75c9d6938e6156fde21c9124cd0e1e3674d14473ed43ac",
        "l10n\/hu.json": "aa15d54dbdece72d23764e0a48de015eb838225bdfadc40877ad1ba9c4d56429c5c83dae29b496384173a113f914867a0c3feefda4c90e9979238c6c74c8d854",
        "l10n\/is.js": "48dbe9a71a563d01e78d649db1755cc10c6f26e9bb8c572bd020a555b8aec3383637c22f1ebfdd3eb04411fe3ca54ce5e30970d963b80a4c58e7127fe56a6d7c",
        "l10n\/is.json": "20ed45620a11105a15ba0235b12d2912261252468acbfc1272ad61be5c169e25643c3dfdbd9fa6def06ed0b678a5cb202a9ee03b8605de64f199a30ff3ed7f61",
        "l10n\/it.js": "731ac26847fc75f6f2ebd2cd55c63a9e51081ff1c62db308677bddf03426503eb626e6b523a839ff1ac0208a233f872526575ce7691dece25fb47ba8802b76bf",
        "l10n\/it.json": "05ef080904fe9a2be8605037e961fce53cd644197ddbe46c2fec2849376fb721bd90d7b6908c2f59bba59f6a10b6d54a257f2167e3e38b16e756f72842232c80",
        "l10n\/ja.js": "bc27c621ad516a4837841619307639ed1a35c87130da9a9feec51e645f8f4b5e25fac5d12b696ddfb25d80767222f68b17adc53f381e8cfaf7e5bada9cee85e2",
        "l10n\/ja.json": "c8b102e5a986cfe29c6e8b276f7c0689313eaaec9c21895b28e59985f25e9dcceb85cee5170962b2e54051cf7c88445965833b5190dd461291553c855ebfb81d",
        "l10n\/lt_LT.js": "259183a9f393313947bcb8133fef4124a5c8ec635b57cd64c786c962285d4b2607a1ec459d2c1fa44425cc539d27c5f6b74453c69ecd3b89a723859382d5cafa",
        "l10n\/lt_LT.json": "4489af1c313c6e6c0b13217586341b076172b900b42d43b866437e3a3c8440ea593df33f1bbac27232fb46569900000d6f79ca2bdaa34daf68825c605119ac01",
        "l10n\/mk.js": "1879778cca4fdf69cd08729430c68ca3a2211e23b3b086b2bb9150613e6063a7ac4d2b45f2a0cad5ba00cae389426652326ae2152f07ec741cf2f30bae68bbd3",
        "l10n\/mk.json": "fc6c5db03d0d51f0fd97af2956326e0d27366fe917fa184ae0dc84572a912408076f30ce3773ae6f9b8fedd6ef20ab87cffb1a0649cf127a914823b8275541de",
        "l10n\/nl.js": "b6c5e544d7742c4435fb2fe4fa8df997a36504285a44cd9119720096182693094defa9105e86247c6308d53e6f0b977608aa6e8d08681ef48e2bb33f57407e6c",
        "l10n\/nl.json": "a538db3b869452fe0cdbd59f513ff30b5100e847470f816fa348ce4b22ec180414661203d057e3372eac5afdab465f0102eb9682c6f0f9f87f0c985e5c5b7c7e",
        "l10n\/pl.js": "bf6047f4698032284c4840e8f7369411d32a89017cccef612878132f6e301cace11a0a63f3b612c8f29bda557c03335a2266aa2d994fd3c05b8bc82bbb96d433",
        "l10n\/pl.json": "d72713752213b1383b87d3f9872e047aa2aeaae397f61eac58b44d6b7776c6f81e1201ff9ece5a5cf997df7fe126ead454b3ea7f64c3920bcfe9fa1796a7cc18",
        "l10n\/pt_BR.js": "a89612620469f76945283791f3756151a1280032314b3ebf21d7b12e3e3b61723368334277e59852c75a5dcc352431e4bff1c498aec422b52467bbf211f8fa8d",
        "l10n\/pt_BR.json": "6893f82686c1259bfe057327682cbadc1c86ea0b6d16e4082159ac29c846a959c473e9679a9c36f317e30e769f3df7d79fbd058edea2e511eb134fd1a7f82114",
        "l10n\/ru.js": "8b27486ff4eceb4c702884d7cc75ea9a62e35300c4d957825ba0a01797c339c8b62daf32b1deeba3a2b1629fd8906d70a7730baeeee67e3cc4dbcdd5625cfb2c",
        "l10n\/ru.json": "6392aaf0043720d23090395371edd640faaf7d7e36984938bb6c0a2877f2e9268d43e51078b1b60bc61e8b09438a5dc854c417c417b6f1b04ae84d257c48c413",
        "l10n\/sk.js": "14b1405cada5bd78c8229d566dc17e62cf212f4003aee54248ed2de543530d8fcee76b4c3cbfd7d3090e90031ec2417f59156c00a8675d993d38f9eb8b071da5",
        "l10n\/sk.json": "b40c4059838565f27663b8309723b2d14d31317047d19bc9210d359569f298cb05530a088e8620085d725c18b67eb411cad7dcde9f56361e13db2b0bb9c7dbf0",
        "l10n\/sl.js": "0e2eaf79954124c232b7056a75af548d3a147706a6e927a9140ac04a1a0f4aa0cd02afb8b9a70dfbb95ee8113f6a037e42d83e256485f9193bf6fdbe0e6dced4",
        "l10n\/sl.json": "7bbad760b62b0ea378b43689cac1efa04eadcdba96a48da5c5b4934b8465444420b1fe94d193e851addfb3216487eeefb4fa4a45e58c2fae251e0816bf198280",
        "l10n\/sr.js": "67431d02a178b34933bb384b252e07bc4ed5dc822451648fb9365c2e2b83aa364d8cd6f0a95be0e7a178658878a44fe77d6e2fc32a796b8115cb20c4d311691f",
        "l10n\/sr.json": "413c49551d1c2591ee284c39730c5269e0f5643845044a52a2453656a5b93929e5ff3ab14a0c75a1db9e055cc7f88c09e7fde4d74a940d119ad875d2f80f0c29",
        "l10n\/sv.js": "70c69e88ecdcdccd521073e5289c6eab53cda58635270c2eb664ff528a2cb7745eb68d0837a3b2bc37dc2640ed0c22ba28edbf6acb2675769696fd249826aaf7",
        "l10n\/sv.json": "20f59f2cebca55c46b9ee3f3a20a6f28f544a4f0a057c86068418dde5677994e3a83f3ec6fe7a6b3b4c5ddf6a112d2f4806566d35c8d9e93e8edf3b221f2a0a1",
        "l10n\/tr.js": "94e7640842c249cee6904cac3402e10b9657e4ee39a12e2e0296dca6bc8933068cb6f971ac234ac83cebbab3e0945e727876a047ed41c80c090187338967bd48",
        "l10n\/tr.json": "758399d5122e96464f66c93ab205558a754354c2ab05e60590c8ef90b556376f822390eed52a44f8f27ad7dd0f8b1a4be69578decc12e820eb941746ef574d2d",
        "l10n\/zh_CN.js": "c30d8daeee14fcfb5e2b484f43a508041c1693d98d2e3023139b1e9c508d35536abb3fbc84e06feabd26e07fba06fa8c8d37b6f5c9c6fe4a3f290e99931ff3bd",
        "l10n\/zh_CN.json": "dcb9f23a97a5c6bbd80ad2d2439712f954189dfa884a55249183f14c521c51133256563ea97d2b4b5aa94c60d925e8e558c64fa8feddb4640f7561039ff2210f",
        "l10n\/zh_HK.js": "16a8687e4e8fa09ca0935485d791d667774a848cc59b7ce7f0cf25e797936c432d19dd64667fdf2d1858ba5773370f34c263ff5a6bcc9288135e736589517559",
        "l10n\/zh_HK.json": "96729f238a01d8c4877d7068b2e267b2c753340fc88720a376907fed586e611ba9cde4d2180cdd2218b32ac9d781d8d94437ccc15d23ecf715cd1555d8a48bfe",
        "l10n\/zh_TW.js": "0bf92f110b73d930c4f3a4ff206d03b43497bc5534bf4be628e05c35d84d2ba2b55970a284552bf88106fce2d02173de04accd4614818154cb49a58e04da61a9",
        "l10n\/zh_TW.json": "04458d13cd2f4771e7ef1d9cc4dfbae6b787b80fc8a7b2a733d1f4d89d8ccad60a269c60dee99afdb5a64aeb1e2ff8043b26cee75f3a4b21e6196573facc00b5",
        "lib\/AppInfo\/Application.php": "374b8f292827ff5983612f8fdfc4afe0794435a80bdeb6425069ba3d60dcb5115534cdcc69a9373c00ee82a62002d6ff4fe5cdddf49ff6322b9a707d9210919a",
        "lib\/Capabilities.php": "d2c80814247f7564d3bba0bf088f56a9c0d2232c6a00a999c258b61650484bb127222abdbc4f15cc73a1a5318019f76430685529e59d015b019eab614122d7e4",
        "lib\/Controller\/WeatherStatusController.php": "f40645f76a205f876feae7fecda0152b32b7ce75ea0e065ec61f59a8f1879f5bfb6618ac4d28c51fe82ffded808d18f745892a3a645f76bb48fe748a200e7120",
        "lib\/Service\/WeatherStatusService.php": "3b75f0dbe6b40414f30b2fdd70b7f4416d3bf289e179ba97bcc64370060020fb1ede6838f97383380650f959fa88b4e23b7e5db805d84d05edac23098b68e602"
    },
    "signature": "EXfN\/D6VAbKkDGKeqHzJ3WMshEJKqS7F0zIjNx6BT+eMlwKkbyGtK1UW36RTFDE9W2Swc\/J0bN2y8HSbDDb3cwNzKVmH5l9o77w4EwBhpvqkWlIK3pyEcrJhgTp\/JeQBwqafAb1WDvQmIGUuEXtftbiTFC+JE5zNMuDuYbWYxYwLHyDgG5lwBu4PiWCAzc5PA4dSEOXB4gxIiQsdMcRwFZZ9j5Pt1vPlVFwXK3Z6i+fEjWnuyGj8ug6czrX\/U1yMaKslKjSOw5kR3pvSlDHNxpxS\/yI9814fsjVThywrW0k4Le2EzN9+IGwt7WYydFBa4cSaiJ2qdbFNIQ4qvyxDMg==",
    "certificate": "-----BEGIN CERTIFICATE-----\r\nMIIEojCCA4qgAwIBAgICEAAwDQYJKoZIhvcNAQELBQAwezELMAkGA1UEBhMCREUx\r\nGzAZBgNVBAgMEkJhZGVuLVd1ZXJ0dGVtYmVyZzEXMBUGA1UECgwOTmV4dGNsb3Vk\r\nIEdtYkgxNjA0BgNVBAMMLU5leHRjbG91ZCBDb2RlIFNpZ25pbmcgSW50ZXJtZWRp\r\nYXRlIEF1dGhvcml0eTAeFw0xNjA2MTIyMTA1MDZaFw00MTA2MDYyMTA1MDZaMGYx\r\nCzAJBgNVBAYTAkRFMRswGQYDVQQIDBJCYWRlbi1XdWVydHRlbWJlcmcxEjAQBgNV\r\nBAcMCVN0dXR0Z2FydDEXMBUGA1UECgwOTmV4dGNsb3VkIEdtYkgxDTALBgNVBAMM\r\nBGNvcmUwggEiMA0GCSqGSIb3DQEBAQUAA4IBDwAwggEKAoIBAQDUxcrn2DC892IX\r\n8+dJjZVh9YeHF65n2ha886oeAizOuHBdWBfzqt+GoUYTOjqZF93HZMcwy0P+xyCf\r\nQqak5Ke9dybN06RXUuGP45k9UYBp03qzlUzCDalrkj+Jd30LqcSC1sjRTsfuhc+u\r\nvH1IBuBnf7SMUJUcoEffbmmpAPlEcLHxlUGlGnz0q1e8UFzjbEFj3JucMO4ys35F\r\nqZS4dhvCngQhRW3DaMlQLXEUL9k3kFV+BzlkPzVZEtSmk4HJujFCnZj1vMcjQBg\/\r\nBqq1HCmUB6tulnGcxUzt\/Z\/oSIgnuGyENeke077W3EyryINL7EIyD4Xp7sxLizTM\r\nFCFCjjH1AgMBAAGjggFDMIIBPzAJBgNVHRMEAjAAMBEGCWCGSAGG+EIBAQQEAwIG\r\nQDAzBglghkgBhvhCAQ0EJhYkT3BlblNTTCBHZW5lcmF0ZWQgU2VydmVyIENlcnRp\r\nZmljYXRlMB0GA1UdDgQWBBQwc1H9AL8pRlW2e5SLCfPPqtqc0DCBpQYDVR0jBIGd\r\nMIGagBRt6m6qqTcsPIktFz79Ru7DnnjtdKF+pHwwejELMAkGA1UEBhMCREUxGzAZ\r\nBgNVBAgMEkJhZGVuLVd1ZXJ0dGVtYmVyZzESMBAGA1UEBwwJU3R1dHRnYXJ0MRcw\r\nFQYDVQQKDA5OZXh0Y2xvdWQgR21iSDEhMB8GA1UEAwwYTmV4dGNsb3VkIFJvb3Qg\r\nQXV0aG9yaXR5ggIQADAOBgNVHQ8BAf8EBAMCBaAwEwYDVR0lBAwwCgYIKwYBBQUH\r\nAwEwDQYJKoZIhvcNAQELBQADggEBADZ6+HV\/+0NEH3nahTBFxO6nKyR\/VWigACH0\r\nnaV0ecTcoQwDjKDNNFr+4S1WlHdwITlnNabC7v9rZ\/6QvbkrOTuO9fOR6azp1EwW\r\n2pixWqj0Sb9\/dSIVRpSq+jpBE6JAiX44dSR7zoBxRB8DgVO2Afy0s80xEpr5JAzb\r\nNYuPS7M5UHdAv2dr16fDcDIvn+vk92KpNh1NTeZFjBbRVQ9DXrgkRGW34TK8uSLI\r\nYG6jnfJ6eJgTaO431ywWPXNg1mUMaT\/+QBOgB299QVCKQU+lcZWptQt+RdsJUm46\r\nNY\/nARy4Oi4uOe88SuWITj9KhrFmEvrUlgM8FvoXA1ldrR7KiEg=\r\n-----END CERTIFICATE-----"
}