{
    "hashes": {
        "appinfo\/info.xml": "e81b93b5170b1a4dddea5847f97333878201bf37a9c59292f539e5519661b90111fc0fa6b822a84681523c523380617984c0017ec3453c59ac9ae5bfedba265c",
        "appinfo\/routes.php": "6a2d44ed1829e947784de5674f266a6c5a4c010d012e107c9a34f9cdfbf75bb50b1daa3273d7d4245d129baf75077707668f57a6057dcbb990c87644fa2cd9ab",
        "composer\/autoload.php": "6ce58ea89aad8996d148557b0ba56c434356b7fd3526cd8069c13a97398f7712b4c16d179e8eae1621f610809d09d27c945d6158ddb65f54b4ebeb9b03771cf9",
        "composer\/composer.json": "7c231052d3a23ecff841a2dc15be038b714cde851090895f2b5b34ddbf00359e1776858cef51ede30958368e4dc2850700e6dc3b95c073da6f60db25944e5319",
        "composer\/composer\/ClassLoader.php": "2b6fa585122ace1ba816410acbd8372cb75329917aae6363dbad48e396cca581452616e1386a2e445a8fbb0e461b988279103f4f89adf704bce7726f761abf0e",
        "composer\/composer\/LICENSE": "f3bb64009f41a425df5a9bbab53490f0eb9b74fa8d6aaa2f57efb928edc4ffff330260666edeaa04a91fed708c3663371cf01b284f3a08d6698aaef7a23f355a",
        "composer\/composer\/autoload_classmap.php": "5e790b66042ccfeb52bbd66fe8867174da67cee1ff7baa3b285b2b83df6b45faf00c9e8589b6e6cf8f0dac9c7280a8f2948c3d4dc5af03e43562ab20e19548b1",
        "composer\/composer\/autoload_namespaces.php": "dd8ee31d2faa9014fe567e1f954b5e7f450cf06feacbb96d4df663c59b1a36a0b7d26ad41b46354bd14f282fa7899298137208d1851099cd3ada285650efd90f",
        "composer\/composer\/autoload_psr4.php": "84a7731e615425a282538e1240a1212901fff5174af69e8394dc101bc6a79b55295399609fb6908382b4b983e5c25b2761ea6cf55ca29727667db96cbf5b6208",
        "composer\/composer\/autoload_real.php": "9473aef0c5084e705b89726b2a239bab1b0a03164c88f93bf1391428c27153ea82d656faa2dca32ffc30b0bafbe0e87d7a1ac4a02a92507ce426da99378dcfb2",
        "composer\/composer\/autoload_static.php": "11935a04b9a9ce0c5b7e749e8ae85ca40c8a21816056440a0366ed3114c2c9f1d13b5a4a3a0ce83a238bf62e6e51bc94520d7c098f04eced7e8b893a28de5a8e",
        "css\/user-status-menu.scss": "0ebb0c20a785d61b725cbd42eb9e23b910eae2257a02b3ddfdd11d4b88f5b0d21b727f316a8d43bd7b5a6c3487f3e891984fb631b0cf42a65abbb89f14c96d03",
        "img\/app.svg": "5fc7f8419c2d1f906f0e8f942766c15807d77f81965cedf3ad1dc8aefd9bcf9da98d00857fce0ba89a94088ce31246ae37bcc34613088bd2367a46dbfdaa0b78",
        "img\/user-status-away.svg": "4f8343426686ec536d3e2786413b8a4fe6f5119d0ebeca6b604cd3f98428aeb4258145650658b11ae742029b884ed67998b01a0fc98242281d3de9175903d704",
        "img\/user-status-dnd.svg": "169f5698e1c7a6d2d1b408347c603c769e89b4ad07e5df9cc179387e55fa0a57d11b1dc146588b38bf22f725611c52548abf90be3fb9220a8b895984fc8cb5ca",
        "img\/user-status-invisible.svg": "9b0754417cebb222c41d0c22f75a3f63a83ff63d32ab4ff6264ee955457dff9ea6bdf241aafc4c0b2bb242af929448d4152e6bc65ab70efb3388ad790d69c482",
        "img\/user-status-online.svg": "1ee816a59589006ea5bc3881d486f5f607496e71c5a76fd6539ad0e00b2e97313b033e6b4dd6394a2ab8ddea9761a13e023034059003425fdca265354add0f1f",
        "js\/dashboard.js": "450d2bb9f3c391754d101f5693adba26ac1013fd79eed69e615d72c90a03dd63b4736f6bb53b266ceff904ece2ad1f3f921ddb66231eb4495e7e00287f8cde54",
        "js\/dashboard.js.map": "cb305cf1fa2210b09fb7279a6c7d44454cf197110b66dba1611cf8f2e2cbdc38aec2c7728d036bbf87b9f7b12cd16515a0a12aa06266e5c82995f09593a4a669",
        "js\/user-status-menu.js": "e2e120801531ee4e88f2601840453d752aedcd3243efed7c2501e6817f152b073d2c5e6069028f2a09ad37339fcc88cd450f296220ceab0c3ed6b47bc7b49f7e",
        "js\/user-status-menu.js.map": "4728918d36f759fea5c35ca9b5dd349fd79e3d294ceeb92ccee4608c0ffa40fe7faf7cb34dff73b963951e8872958ae72f62b6baf8c8301c90108986c92a6d99",
        "js\/user-status-modal.js": "ec83fbc1e1516d6d3be184c876ef4cd97ad328a19386f2987a6f79f3d866c1d854cd6ac8dfad9446f845fc3ede2994e217b997b73c410ed55acb4dd086f7a9a1",
        "js\/user-status-modal.js.map": "bdd8b8c2392200db5d093fe636461675fb7e9ba72376fe7d007e821a953bf01aaceab98215d81d507fdab0827a6079b354c2a0f1d90f84cd7d5779297f3105a2",
        "js\/vendors-user-status-modal.js": "b62839900a0053297b8d4f033f743613394882784ddfd6833e4d1be46488394f6d8f378895aca449d1d1506db97167780c9d051e71f875d9a0efa577ac1c2936",
        "js\/vendors-user-status-modal.js.map": "dea8fb424e34f3dc8f2f380f8164bfded575b1277a1132da3571423eb98ebd00feab48dced24058b01de87941e5a9ae7e86df512a0e024a8058e99557a1a8dc5",
        "l10n\/ar.js": "050cd35ac49412d169ebc927c0a28f66840b77774c89c6d895ff716ab7134bee0dd158dbb1a91d6664c2534eb063e09969be3507ba271a8754168a6703d37868",
        "l10n\/ar.json": "205e85d0b70ffec5207748537d0bdf60b8d3148c6994995e302d1f5b2611179c610e55edee9aea3e5a23038840ea38f331314d94bab9fa6ce1502bf67122a0a5",
        "l10n\/ca.js": "ca9ea42cebab28fe9e538f64264ed747f72ef70328c70e5cc7d2e3bd94598e026469475cd2c4c1a4b7d958dcc7109f1f4ca2397957904bf029b6b55ff1087a5e",
        "l10n\/ca.json": "5dced684db095165d044e38bdab21cf085db19c4946cc7bc9f9d02f036e8f371934a7da163ee97221122817010253a28e3a413a34e06cb8fbe63f18ec20b642c",
        "l10n\/cs.js": "38a145f26e93ef11f542d39d08ecfd9c61b078ca39d8ab2a9f2c17a291cf6aa2d5c0aa7f74ce8ce94fa8437583e474991b0a380599a81ab7db4a5e9dfedf8ac2",
        "l10n\/cs.json": "dab72a75618a9b88a1f6778b6bf19059f4d200f805473365bb7115ccd62c45a83db1f552f91c7014429eda21d05f67c872d308853d81c546ac3b1692d8a14b39",
        "l10n\/de.js": "f2fe60a4616092fb1e778d433dab6c25e6d196ed322003a67a8e5e103f0ad722b7f5e8b2551163c24449315e0710d306b832f57341eef1ddc135d3f47ff5ad41",
        "l10n\/de.json": "96c4876a2a02932f2df65ddc80e2d848a5c5827a3e22866ce6ad5fa0f3661a532d34fe98d9b9178f05b7c7d7116b9d203c5a965cfe47556b0d67f33740643c38",
        "l10n\/de_DE.js": "9cb503bbd5df2dca02c0fb8dbc8752bf2e41acf865edd71a2f05eff4cd3a8fe8a4acf3de7d5d9b359e3c8756105ba2385399f6a47f38644c7ca9db2c598db4bd",
        "l10n\/de_DE.json": "a7931ad29ba97a3c09c2b7da17cdd3119ecbdcdcea1323a864be06c67060aeb8ca4c69a8efe5ad31140d4cc27be9a4a1285b813691d89afe25e1590d4009efc6",
        "l10n\/el.js": "556841aa6128c69360e9e2401a2796d1fd9475bf4f4ffe09e3b6bda33f828b8431e2abe3b6eaa5414a6c330c4733fa559d2bf5a728b7520925de5abd50c1c7cc",
        "l10n\/el.json": "1fe852ddcf1cd67be5b7a78d3b5f32e69389d6ec6ef985658e1ff5c4ba13f3e829f610b470d414e33cba7129859da5dc1ea2b13a7baa78c8a8b5614dc5bd9265",
        "l10n\/es.js": "32345171512897d25b4a2c0f2a5e2275b91e996fc878d1e031469c94f4bdf9c008634a78aeda0b98c33880783e93d00d3e9c8a39a5c37e2b24d3f64d1aafa5ed",
        "l10n\/es.json": "31cf7d08c680f0ff3d1f91619e49451390f73b51992e98ca1ca094c7339a834bac85c943c09f4862a4c97cec17b8dd1e4cfb3ec6eb7065a63f8ea19e6f9475e9",
        "l10n\/eu.js": "bf531b38770b1036d76a290a95101581e7e601498f67d200c77d5a7dbf873c23583ed08248ddf613e892a8e04542e4335e2835547bfdf772493d3d69ce7355ad",
        "l10n\/eu.json": "e7365bf0164ea3b0645375d6ad114cee2dc20b9538e05e762df2b636963ebb35a2ac297a2aaa36e0603d48f89630714e69b9aead98204d5be39f4d87d5ad0f21",
        "l10n\/fi.js": "1e73ff1b490072bc2c49a2ddb1ded953cf5fca3816b58dbb2e2461eb9427d5deb73f556bee49d08d8336cdee0711ddbe8b458d32b69516fbadf2facbbb91bee1",
        "l10n\/fi.json": "b223ce1c4d5b2abd432beed31bd5bb3e2c9402036fa34779cee03c4625fcb67fac64e0f1a5988e0a41b428827939639b9105cfec4d6999c69ef560182256273d",
        "l10n\/fr.js": "6ece90bfefa06e411dd66e97697e995413949fecfb286a6770616eb87efd3a331c9054781ad188797903d99f884f0d71512b2cce8ce53bddf7de46df41f6d10a",
        "l10n\/fr.json": "444b9802e16f3e921b00aa80662fc4fd0417161926f49584b0f5a8d7eaf3115283d0a60ef38666d7c9f4bace0be0985079271088998028183521afa14c5529ae",
        "l10n\/gl.js": "02afc5675f219373fe8c4c329a95193fd12c27665fa4fcff6f57ce623a4b4212ef68c547d73440db3045df96b421a1bbc6d25fcb3b8465376f855bd855aaf709",
        "l10n\/gl.json": "d6fbef9e47318784100ac1fd3ed8a5b91c16d989703c9ff91f32b5aa1c22ef3d7de3ea87c16729bb85542d868e70603f272cac584a85dd0ae7cc7523b9d80bb1",
        "l10n\/he.js": "0541c3e2c68a9c97fc106ffce37a8afe2df4847ed3017020ff6eab3cc0cb685c31fda24e9bb5211bbb6d62d3ced2676eed000684afefcae29d875c9bb386cf26",
        "l10n\/he.json": "babd313f255f349b413a456dc364c56e21bf1a3dd1e9589b56f8eb3bd9a78d368d174fab116a5fc83fb4f2c5c71687a8895bb5bf5a3fa12890c61eacfedc7a33",
        "l10n\/hr.js": "16414790dbcc6c33d111377d11cd1951ff6e3dd78bf03bd30fde5581fb294d727dcf9238976b8d56814801b895bb80c665cbb5bb24e12926341beca1c1991771",
        "l10n\/hr.json": "f93b3b2796564ad52d03dd9cec411cdef161480eb4c68b212303194acf3a7a52071656c65ff37ae84e54af8c50f445d5790415296d8e272327923fadefa6d05f",
        "l10n\/is.js": "8cf193d81d25c50c0f43f47cf4862bed06d73361c62b90042e9b0dbdeb3ddd80f990bea033e573a58c97bdc049eef6752a8cd0f2cd6427dfad7e0b01a0538450",
        "l10n\/is.json": "c7a78e65d8b7ea8d4180556ed90472399171893225ed8be61692a6077888f855485c03d8c3aae45b3f257520cafaedf85b1f1253cd28b13539a2e06e07faa421",
        "l10n\/it.js": "0e48ec59c93e8207d5661ca57ed202863320dfc50c2fa5eaf4767001a4a6350f6429638e6a371049bd81526d561a589d677c5d3a487507a25900402488fc5b57",
        "l10n\/it.json": "ee703aec7a022c776a86ed3d9066c5c5602e8528edc0894f802769df8e0091ee18cf704bec2da9d154836de7233487d7b149ec8d0d8f873a03b7b4fa30818243",
        "l10n\/ja.js": "29ba88377d0f44510c5c878d57b34ea0a15e568a832b82765823f3c16282366e99faed9124cd598b388feed3e6495d8d7cf8847654117824c7565fd7d23dde7d",
        "l10n\/ja.json": "a538a0f270913af9ba07044459c2dabdf57f984295312c2160847608ce9f741365faa6204dc04f4cc3d7006b06f0c1d9418e3f5b32452c6f8752db3235a34233",
        "l10n\/ko.js": "3fba1b464fd2f21ac04aeb595aaf0230a7d8382460b51126e3e5f7ca5b3d655f5652a86d4691c2632877eba5bc5b319731a92f3d3732821972b187e175eebd6d",
        "l10n\/ko.json": "8371f0da78706427afa3b8528cb797278152317a85eff31ed724d81bfa948e8b1c99b3a1224185ea1c3802caf32cf76c199d896153147a28506ac0faa00f9ee1",
        "l10n\/lt_LT.js": "55ecd2a833b0ec55f378cacad8ef85ab649c23fc29be101a49f267c4e32e8977169886ddf95f6369936618ec3bce2b4ef19bd6f37085318b0ea8107df6a8bea4",
        "l10n\/lt_LT.json": "10a223fef1be6b42b7f1edd563115bbeb90c88bfe94e42435d49f69e22a7bc3399f0c112dddef6402b94b2dc7bce0ae227f39a7c426107cb790af32c37005a5c",
        "l10n\/mk.js": "5ae01b2b544e99123cf6527e74bf1abc287a9b760ffd52e8bb745d122c8c853461f3633847f93f2bcb8452d786b34ad91e337b8794522ea2407927491507c856",
        "l10n\/mk.json": "caa936e093ec3807318b800d603b25b158def4660a978214b3db72fc4d61cba3c65b896d19f6dfcc74308810d7db8abd8d59d7c2516dd91fb046107437a0e916",
        "l10n\/nb.js": "8c1404396078c67374badc156707f99beaaa09a3265caef0510a76718ba9da442ebaa780ee8a08077a06527db310a5eb864440d70c5be3a05f3fce8829dbf7f3",
        "l10n\/nb.json": "788dbf4b6e673c86861ba2eb7cdf892f1da47bf00858a226e3f952a7a38e748325b7dab8414b36dc0d1883abf8dc062692918056d673c2b7b6a35f8845ad5ac3",
        "l10n\/nl.js": "db27c85effe522a0a68430370910db9db63485c40800b455adb4b3a0ca37b42e78eff9a9ecd607289c2415055f4dd27a4d35222e80cb2132408f3b6b56d638be",
        "l10n\/nl.json": "321ef615b40d7c5fb14f079a4b6b066d4546bb2556793ccae2b1f27ce8b8a98cd0ed70c3de80e4d5b7439e452e20a00a99a3dce4069bd3f793a64bc9d6a67c0b",
        "l10n\/pl.js": "11550c530e229af9facd66605fee552662418c71d5b91712f7fe9a0610cd7541724252ef43e66e115634b17d0ab98c46b0057e8974f84ca3e20f61dfcc3afb95",
        "l10n\/pl.json": "cd25ff3699ec2e0bc06171110ac11c553d9f6bc7c512819789e0710e1bd7f0ef25c7f6e9a6b583ddfcc1afd4c623d5d924629df39689b6f54d5f6a2a42869fcb",
        "l10n\/pt_BR.js": "175c9f9c7670ffe65c7599d04756a9bb7cfe113e6ab67123c22c33f01d1e279eb4c944671259562d9addbd012b1876f7a3bece89923842bcd602bc7d5e8060d6",
        "l10n\/pt_BR.json": "13ead904e15d4586b3c2c2b74642394ce77ae7ccf647864c59126b20efa4c6bd4328210116aba08d1665823a43a27a54cf4c3e56655ec7fcc8f8f66e20b6d2bb",
        "l10n\/ru.js": "130b0f7cb04dcbef84002d21b80e14d00f4d993f556636c79e644e4ff9536bb75002a214eca068d0ecd9f5daa451fccd47e05cc2b57c66878f1967e80d5cf476",
        "l10n\/ru.json": "4c3e7990fea7a4133efafc617235e8ecd0922e1ce0dfb21c8697d82618adf9dcac1ef5329f858a8537e550cb0672fba00669e5291b08fc8229dc66d19ed93739",
        "l10n\/sl.js": "70d9d249c3ba78795e731581f493a9fc794f2dfe5282f01fc1a37a5228b54ae3f7106b9a455f04d52ee00f6efc035036d804d2c50e7709e4dd26973dc26f0015",
        "l10n\/sl.json": "9b559fbbd8506cf136c0859c68d1fb99a6d444846068cef782cf47cca0b4ae017400c72d3512aac42a37951e09a25a2dcaf4c3f30e10fdaf74c7ff1377a1ddb8",
        "l10n\/sv.js": "f40069ce675a8e9e8e62c651a37db011d129d89f40995dc179b01ea853aa7f9025e02825f3d7a6e0bca4c0b6e667c38a90d7186f52e2a34b2838bac834b21c39",
        "l10n\/sv.json": "235afc83c1c5666d33027ebc3b71ac66417f621864dea829a272f033cf9b39d7efb15d7ed63ce185da042c350867cf9ecdd7fb00ce8805e7e590cf0f36ff8596",
        "l10n\/th.js": "3c4bb226a3a13d8e1c43e0ceda6abc1eb3aef1b27b4cf6b09645bc87fa9be373f3e5a2434c3735af29d1e0abc4be1b485c91cb6df6a1e7e58c0146ef8c3d73f7",
        "l10n\/th.json": "dd974fb9ffb4532b577533bace0e7e02dcdb138fe632e463856fc2f8b6e89ee6c99c6ea9ac6e35ba63986985584b53dd360caafbea2bacf381e8adf63466fd00",
        "l10n\/tr.js": "3af02fc187ad49cae7c1c66501aea31df4838a62dc4a5745cdbeb8b6fb97c42aba9197c470de9003d6bf9c841ad68908d08c2f387d9d5b26130ead51133d4105",
        "l10n\/tr.json": "424921fccc5926c5c0bf13d8663db66f1f594b6de0f5f155f4263bc2f23fb6f8ec59d9ee45654abfe1c3150202c624a14675536b688c8ed4762d7d241f28a32e",
        "l10n\/zh_CN.js": "f31c51e86d50341f359a7285cb43a36af013fb402ddc30c49a73221251e971f321665bbdc44980c14a529a6a744e84f647f39fc04c46a5fed57fa924805912e2",
        "l10n\/zh_CN.json": "0c8a83b90d9ad6fcc1cd2c915c698ecef146548f32b2bbe2dcb6fe36df80c085e39a89489a67124eafaed3fc41130fbd1fecf38ad1d2528a3cc28d50ed8af238",
        "l10n\/zh_HK.js": "3e373620cab55001bc624d0f4b850aec4fd1891980d291e5c70f677304ce09b2b4bfa064d27c354149996e58da3911183caf37e418a43c1fce796f8643a3659b",
        "l10n\/zh_HK.json": "683ee7445f446c8af8f8bb203c9fceae2ab053b5bbe2b6fe5aa03aaeb811a8541c66efe413af8c14e6ff0ed2dfa3b0211d8a8449c8127246bfdff5152da733f2",
        "l10n\/zh_TW.js": "f3d503d9ccfc06e9ba6e15247bb3d24e9ec829023ea0c33ac6af6924cfdb9518166ccdc64cc125aea90ee5eeb926313a4007ea352f35d7229b5bdcdb01e87f97",
        "l10n\/zh_TW.json": "e205b38dfb8044358fa9eb759bb09650f2c926271bd1f79b829b236b7331697c50da498fba93df8459f390af3fa8f305d9aeac15da99519cb0ea48976be462d1",
        "lib\/AppInfo\/Application.php": "07ee7084f07d2b8d2d23a4b32179e7717c388f8e20bf5b80f595e8492c79dd7bb16dc825a3bd9e9815981970b4b00d3d53dc8767deaf3725a0dc5a13e8e394c9",
        "lib\/BackgroundJob\/ClearOldStatusesBackgroundJob.php": "789268629f59c4fba86c98782d5d9ae03d6ef705a961d500d583a22793bb191bd5627cb73aff7084da4e26f874bc7e3ea76fea208884aa78ce1e81c1901c7713",
        "lib\/Capabilities.php": "6d1569b1bc175c4f108f1de46dbab071033c79d19835d76e2df2b8f0cedcf30c5a4f1c62d73247e36005a541b64111ff6bdaaa7e2bd9c2901750c66cc0ded77d",
        "lib\/Connector\/UserStatus.php": "c9a9e685b5cc38a7113548ad239d5545926cd267ee91b731a5adc46106ac7629c0a126f12984ed318a67a11a577e6177a06a0804bd3aa1d0021610673d69c4f6",
        "lib\/Connector\/UserStatusProvider.php": "64c44d18a7a4b3b2f0cd9114aad7e3522ee3b39d8040f9eb6ce5290ce88969ad217350ec1de59c9dd217d5cce869ce9e7d56d8572a481ab1794057f218243833",
        "lib\/Controller\/HeartbeatController.php": "93648c97747add3b59c3731a3dab86331be55e03e4c83229dfaeb6aac1560f23aab2b2ca8364236c68cbe8341aca629a3ca21ad8b38117efdd90fa96741302b8",
        "lib\/Controller\/PredefinedStatusController.php": "9ba3c901d2d8b8a9ee48b216aaaf5ecf2ec078ccfc86dd0514c2ce07f53bd658f465e1d77dcc5a6780012d72d20871044e351e374f0fff630f76d53f2672b1c4",
        "lib\/Controller\/StatusesController.php": "c70d6da8608793ff62d19428e7f95b2a4091560d9278737be5104e5b07fc0df2002f296a9bbc72797fb9240173b25ad4f23d69ea358060ca78f15a4e74580b79",
        "lib\/Controller\/UserStatusController.php": "a2bd8750e6d844bc479b9a0f28bc4597bf7d099a0d02f4f9a59c5e1860cfad80e8c22c7179295752bb027e171c0313ed063160182957250c1b0e8f206b85f346",
        "lib\/Dashboard\/UserStatusWidget.php": "3660b86a4d9eeef45e935f56d6c6852698093d77d3f7b2b0608e93f94ca04d31d2a40f9e155850de35b5d3439f76076c9c099f2778a00f1437b5b6169f5325e1",
        "lib\/Db\/UserStatus.php": "46309fb8ce7276a2179c43c31141ec0cdff7bbfda817bde0aa4cc274cbb4ce832ba081e139fb78ca20b222126dd071680ddfb244b4139378a1df9e1824357765",
        "lib\/Db\/UserStatusMapper.php": "e9067fcafb86b44d893babfe5ed705ad75c669d12066e322f3e7a6f516107c037138c3759470126d21e0baf4e9c57d6ee57fcf2bb25931e0cf043a009baf05bb",
        "lib\/Exception\/InvalidClearAtException.php": "27d97a5788b53e13ce455a2f975dd968f4914ae3dbbc45eac3e1630c92ea5fbb44cac6cda1254163e5b3a1c666fb49636df20623c252e9c187ac2aa298d88bec",
        "lib\/Exception\/InvalidMessageIdException.php": "deef0237f6f4c06c9ffba76da15ef588dc1aa693848c9939264ae2f992780bb9d530154f1ea05198f49d2d502a4892b7513bc4dc2de988216a5d05709f3ec7e7",
        "lib\/Exception\/InvalidStatusIconException.php": "05de221f08824b6a44a07825e22d5fdd824bb597ab6a38f7cebd92a86ca70b6999a89bff58429affb56504bf7ecd475812743485372f189177e7b79541f09b60",
        "lib\/Exception\/InvalidStatusTypeException.php": "c1766016e432dc83199b00b6488b009c0ebf692b14c89675a62e4b7199973fdae7bb48814931c925c7fcd232309faaa14bd05d25b720437ed64107cae5e1c1c0",
        "lib\/Exception\/StatusMessageTooLongException.php": "0501aa3bb9d5ae986dd4c9e10cedba4b8e52d106e38032cdfcbe4b32c817610226a40a76729a6f496103a1084d82ad8555632a5d8f3cee58026b0b7d581f6f0b",
        "lib\/Listener\/BeforeTemplateRenderedListener.php": "66aa384abd085906ce5a3229a764921841d7fd5ae8afa9872acdf222535ee99ee39ae1caffb86d1b68f7e0eec81763cb8f11bf66cfd90706e57930b5a15a67a0",
        "lib\/Listener\/UserDeletedListener.php": "2ead31cec772dd8b89dcb7f01cb22fbbd8b2d3b968793c660f81429e47fb4342eb3e9fbe3bdfabe24ac2a55e8242e885484b9af778f530887e85de5156abed13",
        "lib\/Listener\/UserLiveStatusListener.php": "c9a6362eabe0ba0ea4defe9982e618f63f5fceb221f1a2ba2cfccb08c110e9c4968edd6f96dcc14e0b0133905840a05dd0a1967ee9fe4628e2d2ec58fd2582da",
        "lib\/Migration\/Version0001Date20200602134824.php": "548cf168f76d2d24a0f83ade16c13adbe5abec3e83def859138ff9fbe7476900198b048b2bcaefdf0bfbaa530a7e9bd5469f4b6b69c4d5790273230540ff1e60",
        "lib\/Migration\/Version0002Date20200902144824.php": "71dfa11b06a19df591266be1d887a223eba0f40350ca8ddbe6f15797a948054e19941f5eb35a9cd364d05437161a0d8973d9e5d4183e347cb8493b77a8099343",
        "lib\/Migration\/Version1000Date20201111130204.php": "0de2ae73b98b3412d91dec2dab20b05d33a1fcd384fd28a1bcec67d95e2a10f776f7c98aa45919928b8b8f7af24955491c7207c576eea283ebf9ce7e5b1cfe9c",
        "lib\/Service\/EmojiService.php": "9ed3283ff97d3131b3697a732b16b1db57a2eabe24ebef59f5f0317b25292a7605d54ebebb2da36124bd76abd07e1562715e625fc4ce6da3b9f6d8d2743b63aa",
        "lib\/Service\/JSDataService.php": "ef3f81ec86501c8a2b56d70ddb902a9b671a3599fb5a23165f7219576c332827282d0b23293e690ae548a45b2f94279930c17a2132e07e82c302dc27de771a83",
        "lib\/Service\/PredefinedStatusService.php": "20e956c5b36b4a7916991daa354a0c7ec609957805bc3e9918cab3fe1ff693a0ac12ecd4e539c1f9d4d3c084222b235a0d82848bfe72a83656fa3d24128c7b90",
        "lib\/Service\/StatusService.php": "e7bf03c3f57a5615c1db8765788f1f6b22b58f94601a80c48cb8a907494942051059cb6cd8a9adad05f96ea6c11ab6f9e1bc8d7a1b767f988dab41f8d4758b90"
    },
    "signature": "vy1rtE3IpCjZNnn\/5lEMpuCXP1yW5ct+448MiQ4ibxQvLs+UupyLkhidxFEsYv1MGXjJo6C8sg37OSFsH1vGgulSG2idE0jf4tAVq2IAJCYrja8iJJjhty9oSdyFVmR+D1vYRKxoDTB49nSX3LH+ua+eNzhr7wsYdEd4pumjipMbqvdXD25Vj\/qXxlFSmgJd\/Pn0x1xJqAgqUOhtl4Sc69TnyWb9D3wrFxCGY8wqBn4FpPyQ3rZiVrwRoH6JueMSjKdeqwXJJnf8X8UTeuEKDY12XnGrC4r8ucTVb4VhmI+P1PdFl57cfl4kTkDDsKARe6cbqCV84lqw68uhLjgTZQ==",
    "certificate": "-----BEGIN CERTIFICATE-----\r\nMIIEojCCA4qgAwIBAgICEAAwDQYJKoZIhvcNAQELBQAwezELMAkGA1UEBhMCREUx\r\nGzAZBgNVBAgMEkJhZGVuLVd1ZXJ0dGVtYmVyZzEXMBUGA1UECgwOTmV4dGNsb3Vk\r\nIEdtYkgxNjA0BgNVBAMMLU5leHRjbG91ZCBDb2RlIFNpZ25pbmcgSW50ZXJtZWRp\r\nYXRlIEF1dGhvcml0eTAeFw0xNjA2MTIyMTA1MDZaFw00MTA2MDYyMTA1MDZaMGYx\r\nCzAJBgNVBAYTAkRFMRswGQYDVQQIDBJCYWRlbi1XdWVydHRlbWJlcmcxEjAQBgNV\r\nBAcMCVN0dXR0Z2FydDEXMBUGA1UECgwOTmV4dGNsb3VkIEdtYkgxDTALBgNVBAMM\r\nBGNvcmUwggEiMA0GCSqGSIb3DQEBAQUAA4IBDwAwggEKAoIBAQDUxcrn2DC892IX\r\n8+dJjZVh9YeHF65n2ha886oeAizOuHBdWBfzqt+GoUYTOjqZF93HZMcwy0P+xyCf\r\nQqak5Ke9dybN06RXUuGP45k9UYBp03qzlUzCDalrkj+Jd30LqcSC1sjRTsfuhc+u\r\nvH1IBuBnf7SMUJUcoEffbmmpAPlEcLHxlUGlGnz0q1e8UFzjbEFj3JucMO4ys35F\r\nqZS4dhvCngQhRW3DaMlQLXEUL9k3kFV+BzlkPzVZEtSmk4HJujFCnZj1vMcjQBg\/\r\nBqq1HCmUB6tulnGcxUzt\/Z\/oSIgnuGyENeke077W3EyryINL7EIyD4Xp7sxLizTM\r\nFCFCjjH1AgMBAAGjggFDMIIBPzAJBgNVHRMEAjAAMBEGCWCGSAGG+EIBAQQEAwIG\r\nQDAzBglghkgBhvhCAQ0EJhYkT3BlblNTTCBHZW5lcmF0ZWQgU2VydmVyIENlcnRp\r\nZmljYXRlMB0GA1UdDgQWBBQwc1H9AL8pRlW2e5SLCfPPqtqc0DCBpQYDVR0jBIGd\r\nMIGagBRt6m6qqTcsPIktFz79Ru7DnnjtdKF+pHwwejELMAkGA1UEBhMCREUxGzAZ\r\nBgNVBAgMEkJhZGVuLVd1ZXJ0dGVtYmVyZzESMBAGA1UEBwwJU3R1dHRnYXJ0MRcw\r\nFQYDVQQKDA5OZXh0Y2xvdWQgR21iSDEhMB8GA1UEAwwYTmV4dGNsb3VkIFJvb3Qg\r\nQXV0aG9yaXR5ggIQADAOBgNVHQ8BAf8EBAMCBaAwEwYDVR0lBAwwCgYIKwYBBQUH\r\nAwEwDQYJKoZIhvcNAQELBQADggEBADZ6+HV\/+0NEH3nahTBFxO6nKyR\/VWigACH0\r\nnaV0ecTcoQwDjKDNNFr+4S1WlHdwITlnNabC7v9rZ\/6QvbkrOTuO9fOR6azp1EwW\r\n2pixWqj0Sb9\/dSIVRpSq+jpBE6JAiX44dSR7zoBxRB8DgVO2Afy0s80xEpr5JAzb\r\nNYuPS7M5UHdAv2dr16fDcDIvn+vk92KpNh1NTeZFjBbRVQ9DXrgkRGW34TK8uSLI\r\nYG6jnfJ6eJgTaO431ywWPXNg1mUMaT\/+QBOgB299QVCKQU+lcZWptQt+RdsJUm46\r\nNY\/nARy4Oi4uOe88SuWITj9KhrFmEvrUlgM8FvoXA1ldrR7KiEg=\r\n-----END CERTIFICATE-----"
}