{
    "hashes": {
        "appinfo\/app.php": "37348e99ee7ef04cf4f67aa2db0cdbfe75558fab287bcab7b4635dd0cdf127016f0338b4bf3e6aa66c9da870ebdc0f72751cb3ede4eaf619b39873f4e76a77e1",
        "appinfo\/info.xml": "0707a2c75507d2872097e2def09d874cb58597d3e441a60005746de18a684a45238eaf6078a5dc134fffc7cf1a000f76e1dbea19bb54b0af7ea3d5fb35f5ec62",
        "appinfo\/routes.php": "563e5d393e2e29016ffa909c1ab4095eb57f45efafc8775943c61f55715119d8820016876611cf8e5091d5530744b9b434a49d2d6a7443763955f76437764027",
        "composer\/autoload.php": "d78c1102f51c8a3eb2ee93de5042e16fc55b942ca89959c92e7eefcd025420b246cc2810ca4bf3b3866b2511ca388d8e0aa1ac5cf519be0274f1f763da1d5a13",
        "composer\/composer.json": "2d85241cffaf22a780e02481b7eec4876209acc1aab4c32e8bc37a9f9437e02ac565825dc7c7b8c6eeeca2a0da6284ae34d37a7f17a8c58815fa64ac80708102",
        "composer\/composer\/ClassLoader.php": "2b6fa585122ace1ba816410acbd8372cb75329917aae6363dbad48e396cca581452616e1386a2e445a8fbb0e461b988279103f4f89adf704bce7726f761abf0e",
        "composer\/composer\/LICENSE": "f3bb64009f41a425df5a9bbab53490f0eb9b74fa8d6aaa2f57efb928edc4ffff330260666edeaa04a91fed708c3663371cf01b284f3a08d6698aaef7a23f355a",
        "composer\/composer\/autoload_classmap.php": "3894ded04deed7d22952d5f57475cd5e7cbf38825d691eed1ed4aa51dc35c93cca0a31883780c9ebf1b10a7e607fae505cedd46554929cb42a2e5035127c2db5",
        "composer\/composer\/autoload_namespaces.php": "dd8ee31d2faa9014fe567e1f954b5e7f450cf06feacbb96d4df663c59b1a36a0b7d26ad41b46354bd14f282fa7899298137208d1851099cd3ada285650efd90f",
        "composer\/composer\/autoload_psr4.php": "61ce587db0f009b9b526b725b2794952223c5c3c5617ce4c358f76c7807c28d3f10b6e2970ed581df197d8aafe2948a35802f5da322959d4af5edd02ef5d744e",
        "composer\/composer\/autoload_real.php": "8dbc22a3dda9bb20395c6647114fe9bef7d1a5f4108d54cc56b4b7450385133f8a4287f726c9fb0276cdfca894e3b7d2826fe8b67d8c1df5baf0f26e70605e1e",
        "composer\/composer\/autoload_static.php": "c0da245ecc554668b86c1f914abae733a66ffa4088a234c19193865cc5bf53bbeb2d71386cb23317b90a259247c4f506a7c25f2846772cb6e71245e8775c4452",
        "css\/404.css": "0e8fea68d96b36041d982aa9140999752a0d27859e9cd09806d30f706e52b9f779950b996fabeea6ab5d7df3116bcf31b19176cdfdd643413abd4e668843606d",
        "css\/icons.scss": "85caf3c47343691974f46232c1d60f5c62be105c54f709ae77365d537a918181552ed56e97c7cb77651e9eb47139769d36887410fbd6f3d513291103004270e8",
        "css\/mobile.scss": "ac589b1dd5241d6be29ee0d59e47ac7c22794cd2f20e89c2b5c10b0c04fa07c59daf3ee9804ceaecdcee9f55796b0d555094a102a411b9d2528e3dcc21f2fa7a",
        "css\/public.scss": "7d5ac04c0126d8f0da805b0a208ff62bb5c3d6d8ff4808dee107374bee0230ecfc8a63a871ebae69458ea83387103516e4af26f71b33849f31ba5f4e9a11d278",
        "css\/publicView.scss": "cc05a2f1d7622d6ce906a24640ca5ef3e9dea312c21899c5e5c15a3e973342b7c0c40d8a492b8604daaa5bd3332fc4b310d15ae908c905f5d6464a5982f65423",
        "img\/app.svg": "6be3b26d3518b8d854011dbb2b2d4289d241d2857b619ce93d99df9d122e7233b3e574c8cc22836a9438ddb7ca3d33facb3751e13d5e2782ae069b5744432e5f",
        "js\/additionalScripts.js": "dd5005530268d07872ae16cbcc1faed35976e11ab405722e3150b07c41a70495dbabde87e74a3638bf6c994b16081adbc185347a66558d1b434a2714e639850b",
        "js\/additionalScripts.js.map": "7da21d65d662800e0b7f2f6eb59a8b5e64e2379dfc632f7716d28d6bc21375e2b3b6cc5ddfdf944f9403c0158a67c54e2dcea72e381515855d929d72a275cec2",
        "js\/app.js": "62d37edee980dc0ac845fbc331afe6db95b97532ffca6f29460f8cf5b40068b6ed6afff5f17add8bb51d61527553bd186b1e404add380fd4e9e494c82279cc2c",
        "js\/dist\/additionalScripts.js": "6652f21afac2ebb1efbdcadc78e864d6ab3414fa2d1fe69f6bea453282fa381222a2fd1ef0b3d533b5f497b698fdd821b211a5cc43541a3255344582411d98f4",
        "js\/dist\/additionalScripts.js.map": "d71edc9f37c882a6893b65b1f2e04b4e64f02232538552c89648fb97b374493090892163334670ce2d7d8de754c02b138c272381e155442cac5a3618a5ca4a5d",
        "js\/dist\/collaboration.js": "9708b0d502917340d45f0eacfb7227b4bcfdcf015ee2a53b007d3cb0fc7e6bee3edea3eed58660718bbde9afe5159beca8edbe9d94814846abca2ad0cac0f9f9",
        "js\/dist\/collaboration.js.map": "eb1464ae154978a715bf57f1d13c70f9337165caaee8f6478a91ffcb6a30594b25974e6470a14e668df5ccb5b87ee696d55676e1143caba0e6eacbaddb4dd585",
        "js\/dist\/files_sharing.js": "1163f7fb7ee67a0cf88b7cf0f32d3c7e119690deafd85d5ac026f4e04c05ef8e5443e8a0080da489e87152220373238d1b14c51649a747d4139aca3f5663bcb3",
        "js\/dist\/files_sharing.js.map": "ce62d4452154bea626ad6a676a26ce3925be6c40755be382ae47ab2046b20b09f2a3de57513bd80804da8df03033e97e81a8daa9b056ca335f831b8b70a49d5f",
        "js\/dist\/files_sharing_tab.js": "3e6139174c99736de73a2373384c217e9cc1e0e6f3cf9ba29e915d0b81f795ee7c720c3a70f46664b49ddd45960d4f07685d49a1d8497319c3dda41452058f1c",
        "js\/dist\/files_sharing_tab.js.map": "8ffa9806b3d5f8983a6108a270986d6b372efb9ccd5ef6b8669bb8f109cf7ce1f1d1617a8f2a9c8cb5d17e2c80862582eba9d6d88f5ce24ff72008085ffacf82",
        "js\/dist\/main.js": "d0c6e811c6632b784f1b8ab845ea7575ff607a8012a43b561309ec2767a6e336e1518197651f9a178008ef75a6f785d4772f88e894733ed5626aa6d996a631d5",
        "js\/dist\/main.js.map": "80537c02236b47a3d8a8e75647e4d16fa3dba9522cb670b01972ac5dadae05369bbc2290dcab43abed6ad9819d65ac2ea5c09c9f3ef9f02e60a544b525109e28",
        "js\/dist\/personal-settings.js": "bf129da0cc8bc71edeb3125fd077e4454a1489b0035475ecf94e82dd56e2479efa7a40b51b863374d5abe9c7f2c56fe6eca91683eaac8723e6afce37a4872253",
        "js\/dist\/personal-settings.js.map": "dc8e7c0c4d19a3f43f17cd914f61e811f12aa9ace8698475962891ee1375f56f996c7c78637d6ea263653a3ea2c1baff66a834ac81750812605875c090c5dbbf",
        "js\/files_drop.js": "32b8e6cc85ff958522c795b97c42ff93d78fc9411b6f0d98ec03f9774015b5c407d24f341487698e6b4ff595fba5d067a7bec0954aa324a330bedf837a030642",
        "js\/public.js": "6ee27266faba0d35ecfa86ed6fcad38de5b8cdb76aaf716124cb0bbdd3a2f4df5a258a8094f8993b5b7d837f01be852fac8a30fbfd053183c5841ab77bb8976f",
        "js\/public_note.js": "581bf03fb8aac7cb1578ff4736650e599c466e4ba54e3baabea56373a9fcb5af8d2054ddd288737e245a11d40f7fcf16b79f5200538248df16587b81c949a35b",
        "js\/sharedfilelist.js": "91c939fc86385895facfcf8fab77d637b3ca2b184ee3968c74a5e92de5f30e4c0bb4e92d2bd2edb10c2b61ac90f52a4a0fa770a2e79ad641db694eca24b48137",
        "js\/templates.js": "cc9fdb0297e8cdd7539d4f78c7ecb335a56ce3d942920ebcca5320b5cbfb78a617d7724b1e113e4d42372f010062d2c4198b3bdd71e5f5fd0a0ce444b5aafa1f",
        "js\/templates\/files_drop.handlebars": "6062ed6ae1805c600259ae63dbad9289b0994a4f7132a79b12170419b96b54a9b15678bd28a816fa723e2b00fd0e795e6b971944a9d5058b19ea45cc8ea01161",
        "l10n\/af_ZA.js": "a337b9f63e64decdf45adf7b7824fc0f3644c2012d640743e56c3958ba37b3e8214db3232f913fb4d76bd23d9554643558efe5e674f43e80911a765a09c05304",
        "l10n\/af_ZA.json": "2bd5140b0f17b8b8cd4dc019c4291ffa2a9bd87c0bda7a681338e795745d6a307d1d0b6009f24425f8de5fb760e2ab75f6dbaac98172253a750f4da5ac860605",
        "l10n\/ar.js": "bac16201d69bb66e599515016fb6c78401dc79a5b9277859aa543b63b24b231a82d88a62d8d152e69a1e6db144f953b9ed04f7283f658653801bd63569d1a610",
        "l10n\/ar.json": "61b7dfab31e468f4a729b919eb5e72adce27bfc7db29f718bc308cc9a2fcc8a3521561a5fe5631045c8f3927e58b31a5284838c7e489de511c4aef620a356a86",
        "l10n\/ast.js": "7fee93ecdcae6eef01daae38fb3e70c804377e8b5e6ff526b05a7e978d56ad49c52e9cf7f32a57ac01784cdbbb72272afbf5440cc19158ed69a1e59736c88edf",
        "l10n\/ast.json": "591bf91ec1197ffd29e40aecf710423578db4244aa0231b26d3d6bde4bb0a8a825e153305753a56243402cbd7fcbc5561d410248eae6e0c2260f63a872a0e48b",
        "l10n\/az.js": "f030bb46e9f7f8b659d117ad44f93883b13bf6c42fd3a91e0bd868f7142d06eadebfeaeb86503fb1b948fc67519f688d5d778e4a1beefa1da208d163f60343cb",
        "l10n\/az.json": "7674e2b62222057c7ccf92d4839ee0b6467809ce0cd886e08769c880e2097036ef808d08a0ace7a8d9296e39acc99bffe2dee728235a39f320dfbc559c927185",
        "l10n\/bg.js": "7e1a3be437513cb692a2ed8ade78a6c4719e37e4ecea0c6dd8fa97491505e9c760d8bb48a1cbe3b642ed8ed283af7d717fc3387d718937aebaca29e2394e5347",
        "l10n\/bg.json": "4551991c12da8b405578dd7a5e20c5e2be0b144637a2ee6fe9ce7005fab557ec4ce4c107df3b4da604bf87ab14f5c0c0c83f13c634da6a351ba4a0cddaf150a9",
        "l10n\/bg_BG.js": "44e76cb47f29ce1719b3ab2ae8003183bc783a50b1b7b3411242dba2aa4810015ff97b0e5e71351d0b9ed1cd9602db75d6291af13e58db9c6ac599053af0541b",
        "l10n\/bg_BG.json": "44d0652992ce357e14209a23b0d20fd15a584b88d23b761118a72cc0cc488f4d61b7c052b8b1e0bb052e6c3e3ad2d821f00765baac2464067f75dc884407008f",
        "l10n\/bn_BD.js": "2f6cd41320d9a384beb8c7fc0d2c3b8ebe65670036305a78486e95f914a862eaf5ef51779a6b5f5d94a5c2a4a2be05433906df697d53909f0a3d526b4e1178fa",
        "l10n\/bn_BD.json": "ef0a7696113bf2dce6af81044cec3730c5206ab991549fbafd1179f0f53076bd12eb712baf19a46a154b63f16688c9a80ee0be0b7b20cac18bdb180f2ddd1e32",
        "l10n\/bn_IN.js": "2cdd04ee8c194c93e5ca53694ea43e6fea7c91b45edc939eb2978117e7f88c1320c5308d41ff9970a8354fd354c4de6580e40fe0dd4f6529fc323cf952adb601",
        "l10n\/bn_IN.json": "055394ef610962abcba7798d41ebc765c4de12a7cb1210ea39b70f39fc1661ffea2256a99525c56cc6f9092c5f5433d8fcf1ad196ab6b6a2fdc69af6a45f0017",
        "l10n\/bs.js": "afb9b3e454630fe06b62a71d4e2317c3ffa2e7c8135e42a289a39edfb4622cdd1ef171434e2ffade0c3461aed6b8c57213ba1d3dd42e615620ec5667dd30c8b6",
        "l10n\/bs.json": "213a1613e65e9d32b9cd4fd056f9640131cedb1db8ccb54323da22f72d5a6e24c53f6ff78e754fe1aa6798158395ef58ebc94ef0317342e11a272d6907bb2870",
        "l10n\/ca.js": "06c52ee6f9190d1f8d111654ddb9de118c7ee67252c6cd84ffd081fbc5601a9455e1139dc9ee994941b1ad4f5a7ecea3b3704927ef79c53460516729aa2b0dcd",
        "l10n\/ca.json": "509029e07a1a04c99a4b32ca7760530e946fca726b1b678730ebfdd1d05d021436900429e6a5d7f7fee89f5eee2cc6b04db8f35146bd890489c6955367a2016f",
        "l10n\/cs.js": "142f5452add40d4b9a407580fc6d7764ed5a57d8964eae1f6ee1c313830c68bc385cd4eec842645ac757300a4cfa789e24f7ac216ead9668ade1fd7f0bad3e59",
        "l10n\/cs.json": "3a8e449fd74b68ca1dbf5bc27afbf059d84d9a09571066941ff573e7b0fc0416cf2c27006c2eef144c60e06697cd286a936615f9efe9fb316acfbd4417df8598",
        "l10n\/cs_CZ.js": "f03e593fb15c362df9b9ef14c06d28126b3446a1c9bdd80dfeaf22b885c4b7f5f3613f565822fc175b3dfdef163a86a7543e73f89ccf569cba3c08a3ba3922e1",
        "l10n\/cs_CZ.json": "0f61b1a5471bebd6948245e2270d7cb0d0c62baf8bd2edf16a6c3ac52f0a3c4ac856a69aa72b7e97aad1b9568133e70e0de654733f94601e67fe010376ff5626",
        "l10n\/cy_GB.js": "6e1a2ae6ad49175a9cbfade25f8e4dd3c937486085d3f319ca4ea9906d02fbe14e27f40b46cb35c9a1dc84365bcdc71a4b04e5b6cea0d16431187ec304646bd8",
        "l10n\/cy_GB.json": "0d513a7a320a1de9acbd2da77bf3d24d2a3fdd504877699deb4462463bf5a23edcabc275bfb32bc7b92a9f8de06b2e40d9e1e81166173bbd33315f909805917c",
        "l10n\/da.js": "b5c70ca5d54ab62bd4cfa94626877fac4a126cdf7a94007d134c5cbc3c2fa4b2ff309056b5f284b1bc9d63be6d678fffaea662e56d733e312bb6387ba96069c1",
        "l10n\/da.json": "4408df36e0de43c544e7b418e50cfee10cfd3fb911922053302946ada9d6fd25dbea9ddea2e6f22cb41de60bf817008200e9bc7795861b966f6c714293a47769",
        "l10n\/de.js": "2ee7e39e58b64564f9b87b3ce7ae11944cb5dace5695ef0955d62ef1ec452666610f6d58d6d18407c1f8af9ee0329c311c302550b7d13b5f3b3be4a30ef188cf",
        "l10n\/de.json": "ffdde7872c0cf6c2e427fdb9c59fdef754912799bb11255778f09876b525b29c029d7608a4adb54de47c748a6509cdfc33e301320564cd13ece00b318e8cd9c6",
        "l10n\/de_AT.js": "2c0a084aae6b3c1cf091bf5ecdfeed5c447c25cd2996b22b69767ac835d6a2808b9b6e094dfc3549c3a1ff7546a9a93881795d3e9deb03b20ab73c7745bbb6bb",
        "l10n\/de_AT.json": "08823bbd600f90580afe048c4f76da5077d2ccb34a7e35dce5777788cd7dd76c49776b295767290700064f585078793f7a962f8061f723058d18cd359c44cce7",
        "l10n\/de_DE.js": "ad681d02f0e47214fe782509e8c48e3b18fc39a1ff5a2f568fbf6fa545bcca8d2265282d0879d546a236c429a275212332fc850c6ecb26b9966056ae4a4ce6f7",
        "l10n\/de_DE.json": "c12eb557634c65594c0ed6e420886bda36060d3bf807f33d6054cad1599d06afe58f31883a4534aa076a4e43fe8337cbdae9245b8ebc6425dca858be7d571c84",
        "l10n\/el.js": "cccd356080fb955f23db046f4ccfc1556994e7ea0fdc4bfbccb77af7f701969ffa2aafa87c4c39dba236b882c11705fc7f138a0360a81a4062951aa7dbf4e90a",
        "l10n\/el.json": "f22271e3455ddc485ccb2e96ee66506bc383ab135ea5f29901b9896bc7523a47ef6b11d42c8e3a81f7052696b13e0bf0363e9ee1290af2a70800a0ec828cedd6",
        "l10n\/en_GB.js": "71c795040ffb42be94a1bb66feb55bbab7be06c9f285e7ef51dd4320d291dd819905e411be73c8d0f28aa6924c75e46a51b8e4b851e6698407572681c45b7da4",
        "l10n\/en_GB.json": "d2db07800ca7a760cfafff6bf59cff358853fd2745447bc4703e270cd677ef9fbf66f3b09a617a35e05325d498788eef3eedd16de716b6887e856011884d501a",
        "l10n\/eo.js": "324c0bcb381f15f3c95fb47b860bf2345900e894e34cd5acfcdb0e1e5113d80e6b2d906af7458140975d367cc82bbcb77ca17b8ad211416c0ea0e7212b1fdca5",
        "l10n\/eo.json": "aa434cd86d0eedaf14efa0da7f69705dd03aacde80693eb310b732ed5d9f201f6796d2a4b891ce45e53a84e4d148d101daa375ca0304620720df5c5653f0505c",
        "l10n\/es.js": "7d3c31f104b6918a825258f5703a04ec09c1a1786f8b2f8d54ec5b2e8603ce38c89bb28b090cc8c8bdacf8457224d224d0e9bd3e624e0ed7a339c9913f493403",
        "l10n\/es.json": "dad6bb8ed4036b2d2c1837b61bd65bae6f72bda41e3dbf613a23636c920d938c2841e8cd63bcddc1d60b532f4bbbbfc3d159be165c29c7cffad48abb42fe6641",
        "l10n\/es_419.js": "20d6008d7ca42e862d0802f5cb5b4de1b40446b088f7fdd8a952aa82b694ee12ba7398156da2dc81ec60a1d37bc6751266fc9b6e0a93024aaa7384a69ad6c50e",
        "l10n\/es_419.json": "1a587d0962e054ed35524b0fce12107b97458a72a423102f7292337020187a71793ebf479fbf28c5b2c6c4226ad2ee4e55acfdcbb2db2b37ccd8785c9b2a2db1",
        "l10n\/es_AR.js": "0e7c4b4c0b41cf940ce0901e3626369ea73b5c2581feb5c28dbd77758fa7789a6155f503a83343e564749824dfa373854379ce60e80b8ccbff157b38785d627a",
        "l10n\/es_AR.json": "123bfff95063c3529b529c0a11b8114b63a5484bdd4c3dbf6527fa10597ee2ee5858bab41bb142875b1b87527b60f6242c62589f0c825b9e9b641ee05fb0e7c0",
        "l10n\/es_CL.js": "a17aa7095ea0c13c1ef45ddfbbf685a5adcdffc7ddedf527b8261c0547878d18d92cc2210872a4e876460fdb6b7fc9b32ae37d7ffe83d8cfc1f46c56483f938a",
        "l10n\/es_CL.json": "f52da3e918c5377f2a089080386b183e2ac58a43f769a3825845c6d685e724e9cd30b846a0afdd869bc6437c9d02c582b41f3f43fd75c814d047603cfeace442",
        "l10n\/es_CO.js": "e2cc4c740261e9e5e8c199854d8583cfcf03b19f54d347932d328304f4297f1f7d75b8c83916c3762f2998c7b403bf44c0c04e570c908487fb5e8cb6a235104d",
        "l10n\/es_CO.json": "156709cfe823d648f6c78cd80ff21e624432bbbdce1837161b0e357062fc5448a571668f72a0ea38345f060be3e405e0c3ecb74179d138ab2c3811dcc294e6ec",
        "l10n\/es_CR.js": "a17aa7095ea0c13c1ef45ddfbbf685a5adcdffc7ddedf527b8261c0547878d18d92cc2210872a4e876460fdb6b7fc9b32ae37d7ffe83d8cfc1f46c56483f938a",
        "l10n\/es_CR.json": "f52da3e918c5377f2a089080386b183e2ac58a43f769a3825845c6d685e724e9cd30b846a0afdd869bc6437c9d02c582b41f3f43fd75c814d047603cfeace442",
        "l10n\/es_DO.js": "a17aa7095ea0c13c1ef45ddfbbf685a5adcdffc7ddedf527b8261c0547878d18d92cc2210872a4e876460fdb6b7fc9b32ae37d7ffe83d8cfc1f46c56483f938a",
        "l10n\/es_DO.json": "f52da3e918c5377f2a089080386b183e2ac58a43f769a3825845c6d685e724e9cd30b846a0afdd869bc6437c9d02c582b41f3f43fd75c814d047603cfeace442",
        "l10n\/es_EC.js": "92980541d6914c4361e4c825e9749e427f56433cdc9642a6bbeea38ef683e5e79748cb5cdfc4b49d258200e9dde76458ba51230946164762973844aea085b9a6",
        "l10n\/es_EC.json": "985860782ebbfae3b228d5583bce2ebd9bb6a1f7f487c7b33c8cf4ad2f8962db3aa8a539ee5ba8ea51257b9e547d20040e787c4f29d28c6bb86373db85866df4",
        "l10n\/es_GT.js": "a17aa7095ea0c13c1ef45ddfbbf685a5adcdffc7ddedf527b8261c0547878d18d92cc2210872a4e876460fdb6b7fc9b32ae37d7ffe83d8cfc1f46c56483f938a",
        "l10n\/es_GT.json": "f52da3e918c5377f2a089080386b183e2ac58a43f769a3825845c6d685e724e9cd30b846a0afdd869bc6437c9d02c582b41f3f43fd75c814d047603cfeace442",
        "l10n\/es_HN.js": "f5396e8590772921d475854dd381e194cc29821223bec12d3e28034f61adad0f272036ccd465e4e5dfb0b95883297de19fdef7bf6971d2eebd898085265e7d18",
        "l10n\/es_HN.json": "d9d1847f6231e23793e6bad260b286cbe3e7074dbb8014e30dee627f3f32b7c7a11a33f7918a3cf769c277f62f54690bee2cd7b4ce5c69a92087ae7a84c22c75",
        "l10n\/es_MX.js": "8d07fd4218d1134271877d604c43a9ab2879451e68f56b2e95d9299ccaa87949d7f9f6d99f655559dd1058ef8618bd550bc70245e5a83616596cc4bf6251efda",
        "l10n\/es_MX.json": "af2e5c198b295b3d041a9325c7534b1e3929ff1d735dd634c8c655d95cb09e678c0348742cd9157e9b6acd3391a784558dd011dd0cc45c2b52eca58f23cd09ac",
        "l10n\/es_NI.js": "20d6008d7ca42e862d0802f5cb5b4de1b40446b088f7fdd8a952aa82b694ee12ba7398156da2dc81ec60a1d37bc6751266fc9b6e0a93024aaa7384a69ad6c50e",
        "l10n\/es_NI.json": "1a587d0962e054ed35524b0fce12107b97458a72a423102f7292337020187a71793ebf479fbf28c5b2c6c4226ad2ee4e55acfdcbb2db2b37ccd8785c9b2a2db1",
        "l10n\/es_PA.js": "20d6008d7ca42e862d0802f5cb5b4de1b40446b088f7fdd8a952aa82b694ee12ba7398156da2dc81ec60a1d37bc6751266fc9b6e0a93024aaa7384a69ad6c50e",
        "l10n\/es_PA.json": "1a587d0962e054ed35524b0fce12107b97458a72a423102f7292337020187a71793ebf479fbf28c5b2c6c4226ad2ee4e55acfdcbb2db2b37ccd8785c9b2a2db1",
        "l10n\/es_PE.js": "20d6008d7ca42e862d0802f5cb5b4de1b40446b088f7fdd8a952aa82b694ee12ba7398156da2dc81ec60a1d37bc6751266fc9b6e0a93024aaa7384a69ad6c50e",
        "l10n\/es_PE.json": "1a587d0962e054ed35524b0fce12107b97458a72a423102f7292337020187a71793ebf479fbf28c5b2c6c4226ad2ee4e55acfdcbb2db2b37ccd8785c9b2a2db1",
        "l10n\/es_PR.js": "20d6008d7ca42e862d0802f5cb5b4de1b40446b088f7fdd8a952aa82b694ee12ba7398156da2dc81ec60a1d37bc6751266fc9b6e0a93024aaa7384a69ad6c50e",
        "l10n\/es_PR.json": "1a587d0962e054ed35524b0fce12107b97458a72a423102f7292337020187a71793ebf479fbf28c5b2c6c4226ad2ee4e55acfdcbb2db2b37ccd8785c9b2a2db1",
        "l10n\/es_PY.js": "0505b10d5ed06be5f853749dce851c2ab30c7505e7d12f41cfd9a0097ae0033db5f6b001ff62730bf8844eb40d2e24ad8e03e160eea9781ab2eac901d7e546fe",
        "l10n\/es_PY.json": "216f5cee52df726ee74feeec620bbd4b564c4eb2b7fc02b2d3f3e8f222d78efae4291f61a47ede57f98df9741da7d0465f32e278ddbf061248d02062c64f6362",
        "l10n\/es_SV.js": "a17aa7095ea0c13c1ef45ddfbbf685a5adcdffc7ddedf527b8261c0547878d18d92cc2210872a4e876460fdb6b7fc9b32ae37d7ffe83d8cfc1f46c56483f938a",
        "l10n\/es_SV.json": "f52da3e918c5377f2a089080386b183e2ac58a43f769a3825845c6d685e724e9cd30b846a0afdd869bc6437c9d02c582b41f3f43fd75c814d047603cfeace442",
        "l10n\/es_UY.js": "20d6008d7ca42e862d0802f5cb5b4de1b40446b088f7fdd8a952aa82b694ee12ba7398156da2dc81ec60a1d37bc6751266fc9b6e0a93024aaa7384a69ad6c50e",
        "l10n\/es_UY.json": "1a587d0962e054ed35524b0fce12107b97458a72a423102f7292337020187a71793ebf479fbf28c5b2c6c4226ad2ee4e55acfdcbb2db2b37ccd8785c9b2a2db1",
        "l10n\/et_EE.js": "d7aaaa982e91d4f82115fce61740b6ad92c464c15cec61a7d160fe1693c25db8f027076e65a7651cf11fbf056541328e0af2be2095ce66dfef17b5b04af9a888",
        "l10n\/et_EE.json": "be5522d290efd65cb3ce6914ed39b27ab28da397df0ae8831527e547234be5976b2a45c2ad5f7114e699e411a487f4d364ffd9f5e9cc841f92d8c860e6531483",
        "l10n\/eu.js": "64274fcfd13e3b191a9a2f69911f75f197f5abe1fc3f5ee7a90b70d059c25e2a717c0853ca021e209d30c4a4d7e52456d2579d53c8b46e8aa464fe17088cee69",
        "l10n\/eu.json": "9601700032dc12570131c79b46eeb7d4ab4c235ba398a9fb6038c823acb4112bc813be397468f812561afedd6e99b877bdb5508a86c6c42f574c17a703a8fa0c",
        "l10n\/fa.js": "d74e20173ccd4e53de8155222a90f9b861ebd734bf8dd1da8ea9b01558592902c531971030c21f7174bad69d492059162feea3eec3a05197831df61d6cf65050",
        "l10n\/fa.json": "4ea23f9e2dc2b20e9f50570a604875279ac1598a227a4686db419d7e73ef935eebac91c0a48e1ee09d7cf1bd441a9f658051cd287004bc3788071a84e7e06e8e",
        "l10n\/fi.js": "fa76dab4f0a96161a3eba41282de2c44b5adcb61aed32c7e179278458b37e993214459f2445937a047545adf11a35db27511dba21882697a1e363ce4384a1e4d",
        "l10n\/fi.json": "c0ce75eb0d3c47c0de9f8eea8d56ea0fa52ac4cc8e306ef67685721a0646bc68ac1b3a86e656fba05b29cb4bf5affefaed3a12979ab7bca9abc475783b278983",
        "l10n\/fi_FI.js": "0bc86e242548433a77798cc06575bbf6e4b467745c8a5036648bede4ca68061d6931147cfaedba15ca3e2f0157a247da987ee0715919c1037fdd56014ee4cb13",
        "l10n\/fi_FI.json": "97d8bc618def3bd4469c9287567538ce375df07a15c6406ed7ca14d1af1007534cbc92e5371c8f61d53565f6080e2667492993530fcdb534330b525ab06433fa",
        "l10n\/fil.js": "0811ae47af4506f59c76ebb4b9ecb42aaf73f7a38908484e3075288542b436a06f85bc3725791af3f140fb1de46f4af933b1f8cdb16fb4dcaa4bc9e0eb3ee0ce",
        "l10n\/fil.json": "e25bc8921ff7f9b86af531817d005ff4ef89c933a0882677086acbdce711562e2d004d35f8a31aeaa904303d6082e0fc90242dc246a47a0d20db38f9f50e88b1",
        "l10n\/fr.js": "b5ae0454bb0b761fda679174be24f4b419c2daf4e7491313cc07b0e332013e40509a988b2b251a542d1b41fa68b2ed98c1dff2973836ef7aa3df52a5850c1cb5",
        "l10n\/fr.json": "ac602a6535d62fe07bb4312677a326ef0517a1746ff2c64607581b0a4260dc385f6475cf44f0e694f1a289f454b6ef05b9320225c81d8678c26163dee1cb9d95",
        "l10n\/gl.js": "335b4873c191eaefc71fc0390de2ec13fd7679704e169277fc10e6f5f3df005d1594d90ee4ddfcca4c55254103f500b04280279e8582341f5a478dc4f4150e4a",
        "l10n\/gl.json": "8d31eeb9715504e0d7ca1d7f44b48507d67f057c5466d263b8d5aec89c1281f10ad3a9105772a28dc717974b8567dd7aa851b88079318fa946a2be3e9e4bb8cc",
        "l10n\/he.js": "f283dfe2cf49b54112d4a47ff2fbb579861128d3bfae0308bc831791655aa54546fc89002a19fb1a264d978781cbba6d9844a27dcd97121c527afcff81317053",
        "l10n\/he.json": "6379bf67e88af010afff7d4584047d65dc1a0bf3d08847c1a45a72573ea04fbd3dd6f91abdde8893c07531163bc2fee0ba549144f1064ce232b1e901fa81c010",
        "l10n\/hi.js": "7a04c4896e7b424f54afdfb1a65b625d67090db2e4b0adb677d00b88b847298166cc7525eb08fd3e9a4fb6933a04d0dfcc0108a534823d851a50841b972dd29b",
        "l10n\/hi.json": "b98f32f730378523e766bcbb629ef28a921d29c57aca4cc14b99312270f6542c7266e40bde0920831388a20215f13bf1046700a1f723f9317e85565493057015",
        "l10n\/hr.js": "294bd6f81dc7175f5463e5f9f7c90cf4c646ec853a9a3baf6aa7a5660194ff84295ecfd2e96888a94fc79c36dca6a99e19d3ae38af120a02e26f596bb32b8585",
        "l10n\/hr.json": "b90e04782c3b06d6e01f5d816ee094a164ea49d7df8a126faceb9a42e5ca48de0019e8f28c32fe1858400e093dad87856b040c0cfb26deae823e70eef54d3d2e",
        "l10n\/hu.js": "1633af28c37fbec83c7986844c18af72b56d308551c4e9f62c3b07aeec07fdf1af89c158924191b7e4968d181643bedbe75e081a2d2f82cae00528dececda6b0",
        "l10n\/hu.json": "31d5a9b336ae17eef4166983009f041b819be8031d0e3eb24306a070bf6b018a4836ac310b8a8cc250a16a5555444e8417c9bf2ffb407f809f1771c00a634279",
        "l10n\/hu_HU.js": "2addbc4b30bebcda04ad46703f3cbca53088301f8e5699504987f0f6342c0f157702ab3945c704d4e452dfeeee9240ebec796af837032ce6e1a434b4e527087d",
        "l10n\/hu_HU.json": "a757707ec5274b496e76626f583b860e83347eda90fcaea758d48bc00ed6af574d19f2f53791094df76c8f2329630f9a328ae7db6de677b2e472c6f23be9d410",
        "l10n\/hy.js": "7f0630380b97ef4eadfe8721e9e392a9f859cc14d92ab77f84c7e8530cbf6c6dcc3ec24dff464c68ccdf086e16fda3fc0118e00a7789de1bbc3097d61c2e336f",
        "l10n\/hy.json": "fef199fd1f5f06530045ffa3fb919e540032d14a0e598043ea727e67185a99a2d182f1ecf7f2a46dc24416584650fa12ce6753ffdbae37f831fd255064f7f280",
        "l10n\/ia.js": "7a9c0e0261c09e0f61aa2312262815fbb8c3c03b95df5c9c19f9aa605b09b43da28c57d0e5bb28cbdf62f66d92a466d5640685eed499784283b7c69a2754d204",
        "l10n\/ia.json": "7cd457e8fb09780e2a929a1e963661f482fb3fed26a82618237ab17ca95c4312035683c0e420f83e280b7dc60f7b7baf37c4fbfb484a6552244155bd8a55f135",
        "l10n\/id.js": "f1c3dbbadecae615cc4103f841f9e40df154afd4bd291ca2c5e2f509cd9d4a37589bb8db3915bf7c77283494077eb2f527a87154c4aca9a70ff9043b739b94aa",
        "l10n\/id.json": "2b12794b4977be9d880b2f9f6ee8f9319a97327714c7c55a361e39a365beda7fe10e8a56f9a448d2a7832452882ab61caaf7c8d27b4d1285fd41c79c4c5be4cc",
        "l10n\/is.js": "501868f3b7c43f0d038187d40fd955cd6958ce40b2d05056564a4696feee77432f76a881e59285968d6542c6a9d08a26a816967595bda73a86c9b08a310a4978",
        "l10n\/is.json": "e018d67bc7645c1d5b91265aa5309c3e19dcd8b3930af621864d321b24c28e20c9b77ec97f0b55b113243c8718c07058e0e7de1a6904314dc744c8d2e63618b4",
        "l10n\/it.js": "6135bdfc859892373dbdfe11befe1280a0c44f13148c45a6252129a8a1094665fa30f03b61338325864c7e213ddf8acfedd557662d98530bf955f1b86c0c74f3",
        "l10n\/it.json": "f582ddc79272d708261c11bcc7ce7e160a0db4fe5d56cfe089ac999f7e19b70d94ecd02333c9bfbaecc6412fcbfc8eb120ef15281efe41fcc59f1ae2411d0d79",
        "l10n\/ja.js": "289792fe5857b9a1664077f52869c421b778d15857e7b841f2adf02081f6c96d3a9c86836d7c8885cd1544cca67da1f66f147ee09420c3c6b280934abd58b3ab",
        "l10n\/ja.json": "76ff269e6143f3f007eb78b6c807d343bd9a1018916711e6dba944d2c086ac9d3303d34ceb3cf74691fcdf76fc0f5d7354b493d192abb5d4d96cddfc1a016dc2",
        "l10n\/jv.js": "88e58cb1a5ba3f2463879008511cfbb3575eacce12b6480173b1bd6fafc29f6ebf3868287f3c3b4d2fd627e6b6259bc32f42053e4d44662e3cca8493a15afc26",
        "l10n\/jv.json": "c511775bb3ea0cb398efadeedd5c462d091f7838ac65a5eab3165a9544039c0694072c7d5573b91cbfa7cda8b0b1b2c518e2c85037ec2092024ae420dbf6b2cd",
        "l10n\/ka_GE.js": "72ac5d506f2b851e1323e6932c421217420da5aa653f2c0c8f1b4cf5752300d1848285464d6cc2fc8777a893f97a8c2420d2639e656249141e0b38d9055fdddd",
        "l10n\/ka_GE.json": "b65a29c419f30cca412ca5bdfcdc4899231067d97a19ad2c9caff37dde0fddf25999d3f949b2c140de7271c4527329eb59eaf46013ce8bdfbf5fa0bb3073c216",
        "l10n\/km.js": "2d6bbc34f28ec7dbca3b45978802acb5649a69343dcfc04339224265bd5af8269d63bf54d84644f1174ffe9e05cf196e12a4e3708520d4c59330cfe639482cc0",
        "l10n\/km.json": "446834ca6d48c692dbdab57de4a7fd7637238eace6575a8b3d94fcbf8e802de822ba4c6e58f7f2aaa7e65527c22f8d4c0e2cd031bca2357cb86d35a2257ac9a1",
        "l10n\/kn.js": "548ba2d62de0ff5b70c0b74ec182ca3d1649150e9cdd2f697469d9aeb82915e5b625b251c788fd22b5fa3ce96fc30499d874808b03ecb5232bac651049c130bb",
        "l10n\/kn.json": "c0b1ac8a9de4d5748f42498c5c2cfac1daf0549f66135faeb54eb9316b6f65d4584fa7069694b6b841adf7cb83c722e20d7499ffb55fc4cacf883715eb18ff49",
        "l10n\/ko.js": "077adbed9021844df0ba72301c3a22f6c1609e9c6ba14d7efe9d3ec80d4f9b619d5ee97935d7c5e4802095492e15d661fc66fdb330d1ebf96c6f4f4f58d0ef99",
        "l10n\/ko.json": "89040b266cb7c42f1f89909c6a7e7e3603eac2d063fe9f0211c1412fdd8c1f62193a11ebc84eb9eb1978ad439983e6bf30bf84a8528f4827cb701edf3257c728",
        "l10n\/ku_IQ.js": "6e8d1ba1c9784b342b45cf44d0ec0ca878378fe980cf64d32fb815770de19d4dad3ad51f9f83a29b640ac1274751c5a41c898c8128678516f215d6c5e1af0c88",
        "l10n\/ku_IQ.json": "0a4fa800c1f79d2b0b8d5ef99cc8afbcd2c0c769757482860fb82ace204887e11e049448c4b80568de6f659218bce3cef220224d533e30d8c82c7f513a2c870e",
        "l10n\/lb.js": "2dc5fb75660e2c34ec2f2a3b4430af3c990354a19abf385b10e76fef4043cb0fa2dca99011fd55916fe3c27df97e63cb8347344a5761c3eb87d572e3cf4b5c02",
        "l10n\/lb.json": "a3e7351e63f25cace53ac8b678b59db65ff23390ff8236f4f02846e2998c028d7cace3c9ff269c67e7efe3062059b2138040e323e1ae472fc3fb8d75e1e7b4d4",
        "l10n\/lo.js": "b6f4fc88becfc7d177a57d806a0a81f38560e42b521b4d07d81eae7d320bfb20ca0c22c3b5eb19b229661673cf57ad6f36069d97c0b336caaa8eb140a17bfce2",
        "l10n\/lo.json": "c4a8f92b4f39093c67d43b9b4001b23eab69301573444493fec04232eb7d7a24234e42fce6e594b65cd2a98cdbdd3a30135419504dc031934c7b7882d86a3190",
        "l10n\/lt_LT.js": "83f3c820497a9aa51f6c26293a0b13ca213c5831fb9a7c76f4a1ef335ff7a59ac950775e112a016a9e7e77b69de668e1c6e83c5497b36615e92a04088a864184",
        "l10n\/lt_LT.json": "74c26c3a19305d5a7638ee7a66c4ebfd30efc38034ecd6aa073ad83ddbc8383807fa7a59d1f29eac63175f7fd7590bd4ca10fb86d524aa5dee7e0ed84f82a619",
        "l10n\/lv.js": "2894d4b6b3efb045e1ea1d52ea5ccca96203f2d15a172c4c80aa05ca4a0d9a93d4c31d025f56e314fb551ca97eb2c9cdca96493441d3b9b63ebeba43b1653260",
        "l10n\/lv.json": "cce817b7b6fca7e5be8364855abffc49a30c5f9c7c8eee79aad8fca2a8bbf8fe7ec2bb95ad0bf7ea723fca8a3ca9c7165bfcce31b5ddbb9a1974d054655335bb",
        "l10n\/mk.js": "306af9a8b42c2f8d8b1c30539f658beb1cb25f359b3859f8da950d5d4f213589bf3ea5555891c5df86086a9832ff9990ec49cae1233fb4cc452552224d37e3ad",
        "l10n\/mk.json": "f2a009c97636ed7dc761b6c7a5a72f7af3f629a3e9f4fa8d0a12a2ca57ca52aad3a673c91753a33e7cc4f4b082f2d17531768a734596040179bb6ca963673a9d",
        "l10n\/ml_IN.js": "23231d060c3af9d87dc37eab6efb3213f0a3cb0ae7f7561bfe54167045ce3623a0fcbfadc5714f3533fa51c55c1548f2746b2040eb68b9d9fbaf9db977c7bde2",
        "l10n\/ml_IN.json": "4c23ad2008cb84f082192bb36431d5853d760d913de91d5eb52b1a9c5258ba9ebf1b2a6a361bbe2e3dda112334e86ded95c112754740bae7850215b44be6cd66",
        "l10n\/mn.js": "a6201c43350015554d293799a5d26208166f91bbd1f4c247980814bd61b1c364d5f519b58442d5a86e53f9318d0aee64f14f9768eedb2a6705aef1d9a38f88c3",
        "l10n\/mn.json": "7bdb645968564852dc533d738869e1d7d8ee8f8e879fdfa3c80737e550fcbb3e27c574f06354db9cfaa9fb430775a91ae52e6bd3245de463ddfc6124d6370039",
        "l10n\/ms_MY.js": "79015b9ce5be0accc06901ce3e5aea96c4410b20f5cf18d16147604245e90d974cedd5a518b8ae6c2e56f3ae98a8716d8ec6c0e03a209f352c690f3bb188010c",
        "l10n\/ms_MY.json": "7bc8850dda3af97ed6bacbcbbc4396d0ad79119c4d4151abc34e84377501a5dca247335810f04ecb2fdb07f67881501692285c249e0cb60f12575589946e09c5",
        "l10n\/my_MM.js": "64c79d423475f1a2ecc4c1319b695508c6485b7379afba54374e3c2f3f319767624f36433bdd9d01f756409aa6db4761493b9e1fa4cbc0dfc92b8d5e3dca204e",
        "l10n\/my_MM.json": "caebdc7ae735e1bf867fefe50c8b43dd6372486f7f15863d2de482b4fc2fdad14ff64e1e46ce475237e3e074433bbb4f356b71c601466f05dff87bf6eade3ef6",
        "l10n\/nb.js": "599440577d1df00da093e6a89bc81c607b18c266559e1f4757cbc5a0898403f60af3a61285fb1f58489ff6d25530184835a3de9262eabdc7b812bf00a6b068c6",
        "l10n\/nb.json": "5977266c8efa1d7b2bc88f178954964331394ffbe56914d76b7cfcff19fc2a8b330500c61f1e353129b827e5be549dc8544a4d9cb4244318fa918126a0ed6f78",
        "l10n\/nb_NO.js": "2dd4ca0a62e6aa63f091872e2eea6cdeb5641831ba9a357f33664ce0382997bbf764d73f49b349a409bbf393b924b7447a77836fec8f33b1efb9622518b62fda",
        "l10n\/nb_NO.json": "9f37ef082a5e647718c673368bedeb0beddab3dc06b8b4e916c8a36b21d2349471bc835b5c13e45fcae38b3ccb6632bebd6a09a3977c5852f33210752f3690ac",
        "l10n\/nds.js": "5f93ebb4b2eba08ecd6b872a63f9e4e516c97a43797d3ac0d1172f6f77aaf2f92766124917aa1963cbdb1159cfc34f77b38dfb8bde34975fcb931b1611ba90ec",
        "l10n\/nds.json": "0dc6799a3657d4225524e6b364fb3e83faea647961aaa39f0e20f9e94f56736821beab19600a688168342db69ccff98559a1dc5b4de291c65612c2313dca27b4",
        "l10n\/nl.js": "e4b7dd72e694bc4f0ad54004b23d553aea0988bfd01fd87e410e944cb27c12000cc1ddbd8b82caa59fd4049c75fa3a6d5fa4921a9f8a91a6b601c3aa58bafdb1",
        "l10n\/nl.json": "9e57798a2f74354a738f114e16524dc2e1251a0c79d39392ab791d309ee4e92eef27e01f04e1c8ffc35e7bee233267cba16beb84118b97ff10dca2119d9d7e3c",
        "l10n\/nn_NO.js": "8c8afc8fde93c80161dc441b7d77c316ae09111f16c3a59f889a9783e428b9e44c8fc6afbac1c58781acc6da2d84c705963f7c981b545a0cd09b99cce8ab7bd9",
        "l10n\/nn_NO.json": "9c49a4f5ce48de7f9e816cbb4e1f093839755080def2d639c505b1c7a4d151d7213b599ed9aa5a482eda41eff6f333120ab2c27c9f27c469e5a0479c58478d7a",
        "l10n\/oc.js": "0e71eb1fb18a8ee994f75e442b0da18862d9d3d9db2f59ad75cdf455ffafa6abb29718079adba6aea3cf70b9b62c9c2c07c08a3cab8062149213502852942c59",
        "l10n\/oc.json": "f09cdde38f2f80171c7cd64a6f372d40299e21eb6f19db2b75a34d9594cdf5803983aeff502356b232c2c16ce0d02efe875c12e4822afff92f71430bff2c0e7b",
        "l10n\/pa.js": "b6130185ead701a060019ad2c1c8ed17abcf21713f1bfcdd57beeda0841b8dd4d47b9149fb571ccc455ad9120356e720d81119d067371e964f98f3df502b85c7",
        "l10n\/pa.json": "0d443e877d7fb60f4b9001540ee4ebb9d85a6db75f5093951b38c1a443b00ab94b193d089a9cd8483b80e3f5200c37122c8cbd698a8c0978387f9590f4d25fad",
        "l10n\/pl.js": "4d913444e3a39dc17253fcc1a0a106977b7359e9e2ef0b52840a53f2bd2dd177c307f6a9e9d1e9b185cddf51e83fec526b0ce9d21d3489d96fd6861b54b435b7",
        "l10n\/pl.json": "45245735ab97dad01ea74c5960a105b790865495cb8afefaee6f9487181c7a8a4082d0f2e410513fb7e9dc87f83cd740902ab6c47d0bd1fe5445726f3c8b231a",
        "l10n\/pt_BR.js": "ad8fa021712678bd95ca18acee63b6843d536d68f157e79ed96d220d2a5cbac65a1166ccf469a451c5912018de4f82d22348eb0516e5077d21ddf7b15f3326c2",
        "l10n\/pt_BR.json": "2a1de4c875d41baf47d73ec13ca84d77e8675b34c253500326c92bb43e68c37207acc2cf1c8cb696cdb3364bcbea9d88c414c350444e1e71272dc6c3ba3cbc2b",
        "l10n\/pt_PT.js": "43a31e4e19d5dbdebceb0f792f08f7455bf0cecf62031a94a07955f0e7ae38d78cebb748ea7cef0b02520bb3d6bd943da3fdebaa3c9d2a97248bc13e3bf15e95",
        "l10n\/pt_PT.json": "b7e93c6bbfb0831ef6daa99a2cb65a52ce7925b96f7516b665199846bea8de32e343df3e179fca7b17864738dadd5891da47779fad5b58f0e6c38c0d48eb3166",
        "l10n\/ro.js": "6cba35d990a3c3b9b0802197770d1aceab3b2ff601111054969d8b746b6f318a0264ddc0b97a2b116b4eae09cd43bd20505b94a074f8946da55aecd226cffac6",
        "l10n\/ro.json": "782e11a72cd0caf7536f683e75d677411468a5f51b4c575c428ae207b44e538a8fbd315ebf25fb7c14c76773fcc5db924a557845c3ce26d79168b6c7edabcf31",
        "l10n\/ru.js": "6d8ffa5828154e3ab83fb2e72505b44e1796a406589d64772c34b54a32040e44ad2718ac6bb140765298024824131a92dbe4489549e392bd0646ebb80f2952aa",
        "l10n\/ru.json": "a0625793bfa567dd2c732ac8fa4825a633c062557ae545a36be63144705a7812a5ee0680091b2c8aa329daa83b6110c17703310ea4a7819329cb723244b142ce",
        "l10n\/si_LK.js": "11a629dcc00c9a1bf17f1753bb5aff79e7b438b33cbe0b736919d2afd37fc4162287348ce254288a3df61db1068f09338b025591c26372ad6c85cb6f01921c98",
        "l10n\/si_LK.json": "f8654f5b1450464a7b731064edd106c4bdd08b7050523433944c2f5a0311a4ca2df90dc67aa42936607a7721a870da2383b5aaf3430a5abe8ebaffebebae21bf",
        "l10n\/sk.js": "80e9fbba0b92e8bf60899397e8ad05a18c919c67322053a70e9d5ee0e51680a2888dbc5b78797bb666117f03f79f96fa6ec02ba6d5c52bf06c33fac7a2653057",
        "l10n\/sk.json": "b7eb844e51acc22634134db62246d52f68b6b8aa5d2665a7f64487f77278c49659886e1b1983d7140db4f0032df8890dba6fc6874c6668d44ce3a1342c331b6a",
        "l10n\/sk_SK.js": "4029c6fbec47f5a0a9ac3c880761128fde4a3f92258997b74d4a394c39a98d3cfe49283c6a006c253d73cdbdb1b3e1a19e3db173174ad6e8dd68dc9fa4ac203c",
        "l10n\/sk_SK.json": "498c95e210651b34a77d40fec7777be374ad4b3c7fb7f806ab8a0afd422abe03eebea5b9858be6608a36d497ef7d296ac01dc441e8868946c6076f1fab82ec3b",
        "l10n\/sl.js": "1eb8247248714ba5c2762abf57f46f86cbd4da2207bfaabbb62fb3826d7a4ea913d7b56bbcafb8a3f37a1f64c237a850894b314bf427f1d63e0ff71bd7c281cc",
        "l10n\/sl.json": "49e19299d786bfe0d2b4f04072225f8e9a445a5990ae11960b28990de5a2e0aab39e96ab0d58a013f74eeb07b1268fef63c30b930159619641ba6f36bb3dfd43",
        "l10n\/sq.js": "514cb993712d1081d8b4d4095edd6800cb74b9b75fdc1ab861ba07d62678ffca006d44d733427717d97d757268ec146f9154dabd097b16c21e7fea902a52a81d",
        "l10n\/sq.json": "d8ebb66a2c4683ef392945a0fb469c8840b3b2e29e155b362e4212c338eb50c0a196d2dbab5cc2100fbcc92aca5a35d3be0fc9e15aed943bea42b781d7f5ccef",
        "l10n\/sr.js": "f431ec3d1936b2cf73df41f17752b88a68744943eaf501f40e1373663f83dcddd36c7251c00122671c3a3588b84bd0ad06e1ae15b9206fbbb50bc7a940340534",
        "l10n\/sr.json": "9376e6e5a3c3dac45007ddaba53f118136c41d4cf885e2a87ee586b8e2b5d296e3405abd2b9b67b89d4bf5ef8011bc2bdedee2df7c9e46c3e368610617030647",
        "l10n\/sr@latin.js": "dd943d0a56ec40fc961b17359d6dbbd69282de4a67d83b77642982743911f112e80d03b5ed600b987149b319ff9651822439881d21fd92ad5b3235eda5ef717e",
        "l10n\/sr@latin.json": "0bda60f626e318ffc09a4df902d5cfd6ceef0c6da8afcda9059436e5876372402cd6ee1c8bf9a13e65109dda61c73e0b5b8395afc713bc3ff428d6084c49a45f",
        "l10n\/sv.js": "4f0090cdf64434dab77b407f055dc960ca4d55ce3207624da4d71669886e94491d7a1b7596109578c4dcd3bec4a4118e4f48fbe86372b3af2859a528688885a0",
        "l10n\/sv.json": "42566d81648a079b0dd10592cbb4f74a6b04c0a7d84f7236f18805125c22d7f6ce261cf7107b44e27c3a2f5a654aa8e5f6fdc0a9a758052005e580210e9eae4e",
        "l10n\/ta_IN.js": "9e79a93c91af2151401b7ac2463ff92ea656d50e8dc5c6279ac3f0da54b58b8d2408deeee856beef1c7424402a420aa889d97d1b704338dfca36c255d58f9cad",
        "l10n\/ta_IN.json": "4ab4e9281049c6a3ee0775cfee6d7fc733281cea004dfea71f621fb28c47d8314e5d868d499d81535358a691c091f1ab4f366e647d9cf7252f9b5b6fa6b66cd0",
        "l10n\/ta_LK.js": "4608fce61cbcaeada4759da4af07b7c26de691ff2cb814a10260078813b878966cec9691cc7a1f36bbca44d9e37c8af31b6fa129b9f72b2388f40ac85559e490",
        "l10n\/ta_LK.json": "c45c436fc003e68ab3839ef40ce907f44fbb84876da56499e6c1b4e58930bdce9135e9fefb740e6949b98d3f9957001f6dd1d12caa40a39c6f45cf4347c128fd",
        "l10n\/te.js": "b3e11c88dce6158696ae4ade6d35d8cce9dac4b964a5354ed516dff38f71c5caeee7aab7870f0505c367a6b936b6cd6cd8e31ae6178de0c8e4993ff3c835eb31",
        "l10n\/te.json": "1d0fde503938557720989fdce71099d4af4d7a5371c0b1b1c9fd88b254a885c86373955f6671d924f3931254c37691daf426ef9f3035b186aff30a473f9d1650",
        "l10n\/th_TH.js": "3b9d36d15e90cef268c3985c34b776cb5f961dd419bbba97d1fa52fa255e31f24004a56b6000ae9e40d3b67992e4f72a6f3aee0c7268e927d39312957a55867e",
        "l10n\/th_TH.json": "d5783e73adc5084c1377c1d71f871b7ccb912ed97870f02abb33870596e963b08d16f32790fb2445b392583bba99590e73e8939ce0067202083f08a83fdcefac",
        "l10n\/tr.js": "0e331934dbae5346422cc57fc6abd874c7659be1dc31a3aa58508dc07675a71e3fc5a60ab9c22446a1c685283704e24a750877a07b5f9099acd53ad551f632c3",
        "l10n\/tr.json": "2e084eac5f991e60d43b730b4e8bb01d636a5f84368f31b191324d189575f18f88736b32156dcbf5623a64bac44c7149e92d69b391825fdd7895b09f8ac044d0",
        "l10n\/ug.js": "20633fb5cabb8c10097b06ff913b0927aa5e770abec95eb84047150ddd7675c414f5b1a21780d93d981139888c905c279b01921d503ba90d59b6e41179370b39",
        "l10n\/ug.json": "c01dcae5ab9e7d1b18c3e30dbbe8ee6c24259ece513bd0e694ee92990c3ba59e7901bf1dc499b877344f182dd631d9106f722f903edf66a868b01095f5f0d693",
        "l10n\/uk.js": "4368ff874bb20ea1ecbeb0a52bbb9fd1c39959cea9835da6be9f14bb8bfade740529b7a7635cf2945463b6063d20cc02e5e9f3bef9297b945359a8ead221ac2f",
        "l10n\/uk.json": "69dfb018e707dd3663657739b866a321d19bed348601dbcc7977a40173b4c8b606482d4afc638985db0e7517a9e39346111e93f18f41578e03fc2f42e3c1e32b",
        "l10n\/ur_PK.js": "356e36fbcf5cf7c3cf7fb636842ddf2b8ddac3a3e8ca99c9df8c927a33f7bfb540d81807f71d6e0838e53610b84f21e31b9291327f9243546465dd6618dcc2b6",
        "l10n\/ur_PK.json": "c28aa2744b5b8e6e2560e0d154f8692ae8ad774d217e6c815cda95a29cb85fc4c1e1c7d7ad92163b2b7903855789cccaaf90676a58bc854fa46d9b3b0283b585",
        "l10n\/vi.js": "ed86863e13ef07b14505462f921628493f2a958bb9a053d5095c9655efdc207d780888885e883ece98510d025da8d7838f5d92c2c937fa709c63d7fd316e21c1",
        "l10n\/vi.json": "48b21022123d28db661a75d6d85401541fe4ef721c1444b332e5143022297e3d977c32990ed1b65e74f896e15beec41dab49c7b0c0744282d481afe2f733df09",
        "l10n\/zh_CN.js": "e1f0ee323a1998f52fbbedf2e5500bcd340d40d1b3785f6fd58e0489523c8df1e9e3869ad64643af6faca5c02205f947d1232bcaaa633a120c452fdda33de19c",
        "l10n\/zh_CN.json": "8445367ec842c2d863c5d7f89ac52e23d853b981e5d5bd45f9ebab586a40989b2f81bf1921f1ffd6f961a5671ff0eec211d28ac1e749b94ba426a932114b04df",
        "l10n\/zh_HK.js": "9416f20697a6065904f9c106fe3cdca4ca40466315514aed7dbc54e1ee8cb2caf6e5bd0783d9d4dec9c0a7c8f2b955bc4b4c440b01a016459cb9609c1c8e6b4c",
        "l10n\/zh_HK.json": "49b943499979013b4da709753aa3ffdaf8dfdc9b0cf79867de3fa3c6fb752b00f117b5c79fdceebbd58ac0753b61fc8a28bb7f5d62cde7d413d1ec4a1e09db9a",
        "l10n\/zh_TW.js": "0de83cc041680d32ca8cffc6029de7cdc5e0195fb0db1aaafd991121d0f2650bc1c5939d3ccd0a011b4eefe5c0ca33814083d1a07e0668686a66d94188449c8f",
        "l10n\/zh_TW.json": "acb3a727f3b74431fe481357232f5cc3c2520c552554380942cc114cade860badb1de289e3340800fc2c9542f708fdaf93cc56404cd0077600699c317487f89e",
        "lib\/Activity\/Filter.php": "0900dc6eaee41b89755c81e44f987562668b4f961422e94673e4030c8eb22a10633165388fb92e9afeb5c4fba5772baef5b5918894e9b892f9c8ef0aedd09cd0",
        "lib\/Activity\/Providers\/Base.php": "469fd0ea4c547a3358c46b2f3179f9d6b29cf554bd7b8d7af5b89159baa6ec746c0b3ee2541d4118e9000d3257ea2a55f3fed1b55f84a001597683ae4a10aeab",
        "lib\/Activity\/Providers\/Downloads.php": "bea3f80ca3d1c9442b0c16c29b7efeac60186d43bcdea5443981489d6954810588cda59272295de689c0fddb4088810ce86dc4a809bb18ddba4ca2b12ef01452",
        "lib\/Activity\/Providers\/Groups.php": "9bde8bcc8335bed6088a70c4dca7bb8566855e082cab81db761d44ff6df30a680e5f1e05e75d990acca857a8f0598a8819afeb5137bc04f676c9067cae51550a",
        "lib\/Activity\/Providers\/PublicLinks.php": "d697708ad1d35af9b343d9460ae4a2d644cb248f48158228e30842beb3a48fefcb1b952124419efe0a95e2fff086fcba828c1d8a6efaaa0e5eb3b1cad72e85a6",
        "lib\/Activity\/Providers\/RemoteShares.php": "1d0e70bf2f771880501f76024490249c146ef551f64bcbf5fcb70b5b029cc3b14f138df59370d1a8e0506672be14570dd89ce81ffc30061b627496f111b6a6a2",
        "lib\/Activity\/Providers\/Users.php": "777ecd34cbc0d79084888bd41a1b88378b8086ac5d1dfbec360463b7032ca99011a5d7fe64a79ef779dd3f42a7a4116c639dd4b75d3a10de6371b592ae5ce0fb",
        "lib\/Activity\/Settings\/PublicLinks.php": "7ea7a58d0ea426448f95187114d2b045ddab852f7d791b91a9fced1acfbef6c85dc3bfea237799eb75263e9773ee18ec175b479116088ae76d64c994e5bab901",
        "lib\/Activity\/Settings\/RemoteShare.php": "9570b6723aa66fcc60957651519a71371b32cc4c97d6f863862399f53d5b4e6df832052e35df0302e57ade088bb677f476cec536a469b48f6bc31593548f4da8",
        "lib\/Activity\/Settings\/ShareActivitySettings.php": "75ce7bc1bcf6ea28498d53b9291018b34741f95b95045c6f8916ae73b93327b87f919273c7b03823bc493af86017ad43a7343d161e8471bc4896a5c439633dca",
        "lib\/Activity\/Settings\/Shared.php": "8ce27f6798f5a5d56a0c6120c087d1101c59f7cb96323850929def92f083126fa7f10d4957de170f07a8952afddf989c03d42d1d68b7beba93fc690d3ff79058",
        "lib\/AppInfo\/Application.php": "efea49c414014ba52d9a1982577e7fbcbd3cd191bc75f6b81ed18928ca39449a1c2f226a5b3305dd66ec30ddeeac4c6e8bec1c14560184093cd3786e05473a2d",
        "lib\/BackgroundJob\/FederatedSharesDiscoverJob.php": "872b2b3975efcad21f9816a34da52b1e97cf9ffcd8c1088575d0f621c318921aa99281e7985a65fefcf5b1af857d1b7454c361a101cc9efe2b1b373c9722527f",
        "lib\/Cache.php": "122bdc90406e63831f44cbbb090c5e72c213312ae1cf4292ed0a5fff7686265df19515c5872d9709b145cc180d4b998b144f6b140c27404f281c32c5bf828ad1",
        "lib\/Capabilities.php": "b3ace2ca02295ef2a0f9ea7cb33c285851924d59be0dafc218516758921655bf6855bcc8acc8f1ab03238ba782fd5094f59b41db174eceec42d9283ac58ec512",
        "lib\/Collaboration\/ShareRecipientSorter.php": "6fbd6acfee99a199f28ec3c703c1853e5dfefcab60f38164ccd11d9ed7185320c5ef3609335e71f22c12dc6528ce4e44a2154161da1248ebd9c2ef618b37343b",
        "lib\/Command\/CleanupRemoteStorages.php": "79d2c4a5328a3608f9e24b404880034ec37ae6af7a40b47a7d36ab6d97eaec0c128f86f960af74e593d7b4ff96ba526443771b88b8a223f53757253d47b9171f",
        "lib\/Command\/ExiprationNotification.php": "3d63c575b5ac1994cad8e5b2fe8eacaad7a5f69dda0a49b1e7c51decd8c45d6c86ab4c6d6659a188093d81ef79f0033737825c8227f10cc2c80abd5966754c4a",
        "lib\/Controller\/AcceptController.php": "f621705325eaa2ba3e73c7b8af41f8474799ab4b284299f8e5b3768d31a2d7b33b1073312d55587efb09f170477b2e20dbd44a112346b759416022cbaae07069",
        "lib\/Controller\/DeletedShareAPIController.php": "fc957dce9516e3f1cd69a27780ea45f7573d7cf446a47d2e7c4010b25a360441610dbf80faf3068a4742c934efe0f2b89a977cfb2028e4602cf436695a374685",
        "lib\/Controller\/ExternalSharesController.php": "83def95d544e80c561476e5263b7260f6c2c353f7b59c401b52962dea14665d572c2159ddac3d3802b614063c3f6cc2ef8297a3b13f31bda8ad40df713acbb22",
        "lib\/Controller\/PublicPreviewController.php": "3e9a33bc8eceabdc89a39df1811a6b9df8b667e2c156462670484e27bb4572b0731f1c5f224953ac8ed1fc20901d3aa07ad4d80a513d3bf9f88291cad8550cec",
        "lib\/Controller\/RemoteController.php": "28e5eda3ec9ea9b53ed5d11f3d6bfb23a5281173a6aede4824a65f136e84b9de3978cd8e86be9af125574984e4a45fc8d75793ccb01d16fc1b52245f07c28973",
        "lib\/Controller\/SettingsController.php": "8eaa7ce50cbc6e606f2aa908347645e069a5463ca7d65c7bc80071226da36448c92bf5b43b8a06b4b7da676fa15dc20bd808f721fd384fc855f6872e6e8ec7a7",
        "lib\/Controller\/ShareAPIController.php": "8dc370f6aa02746d449b46416af882280b7da8935643a36b7b838296db2c9e7b5a3176e551007c615499621662bf9be39829f098c1ec0e6e4826e35876c8c69c",
        "lib\/Controller\/ShareController.php": "cd1e9010d67135da9acab30d9f34149569c2ad8628d28b43b44022e66c19d796ab2491110219d1853b80485ab268eb8701a0941a1beeda35788519d52c91ea52",
        "lib\/Controller\/ShareInfoController.php": "4415ccd8d64e9a0568e27577de12e439ad8d8182f756919bca89371484bd495d713c06bc09581730ab356ac3dfb5a8934cd56b3b40d8bda2ace28c6845ac72da",
        "lib\/Controller\/ShareesAPIController.php": "feabfe41241c64901440237cb1a8c016e8b7c9d49b84c4213f3b18e9b9f84d03691a7f578766172a1f59ed038257cdf8ef202c4d9a50a0f4eb88ba03cae42287",
        "lib\/DeleteOrphanedSharesJob.php": "316105c4ef1ab062d07cdf02197836b5097d86aa73856e7a79cae185f418d53633f515668f2ca7d9b8192aaad35677f3978fcf8aa3588911abbb60f13a732a7c",
        "lib\/Event\/BeforeTemplateRenderedEvent.php": "2e164aed842c83cf14ce4ecefc98ce0a945b4f2e749c5499de294375664781ee716736eaaf122a275878d88c59553f9e97832355e3f7b0e94a494bfc649ce3a2",
        "lib\/Exceptions\/BrokenPath.php": "294ad35cc72c80a606f1553692ed57197ff76d2a5d7b6c9da5554e1e0c896e201d4c953e84e68ac32aa3f9419dce893d63185fa1091316978e4c2c208b6da379",
        "lib\/Exceptions\/S2SException.php": "b52255e8fac2ba512386a73ce2a706c50286ce958957180b54d44a594910fa3b5eb0bc44728d7a36017da9faa3778bd67ab7f1d0c3477a69301a4baf76cc3307",
        "lib\/Exceptions\/SharingRightsException.php": "14ad57117b83a66ee69ca46fe163f3673782f8721b34824ca1eb52393e113b059613064823b452db65b1fa5f17c3be58a6f39aa26fbeb8d421048af148955ca0",
        "lib\/ExpireSharesJob.php": "f258b012411a8283a45e25181c762d3ee5553db3b2420ac8c8ace097299d9325fafd02b8d16c81d8e52046d8d85dee31fb73852fd202a602b9b2f13bc7855366",
        "lib\/External\/Cache.php": "cb7d11a888e05935a1ad73ed621655d62a3ed090125aa85b9a6d127cebebe4f3a8b317a28dbc454f01b4bb01e26b42d871fd4f47589a7f6390cd2e993427d13b",
        "lib\/External\/Manager.php": "3147fab3ebbbc8c80593c6c1a831680227b06fa4c76bd615568339eb5bd14162909432dbfd4c1089ce21162d6c3d5bb14c8d6a0d75a49cc4c9f932cc44fc4622",
        "lib\/External\/Mount.php": "e4816a95c31520809ff4e449e307d62c3ddb1e9205b89de2742347b92ff645ad9635826085c7d667b73cea880a2c681bc2be666b374d0d01914262ecdea7dfb5",
        "lib\/External\/MountProvider.php": "e588e444655ac5c50aac722e52d35debd5e5af3d136dae4ea2fde37e78a0ba3771119dbca7a21e34f0e4db1fe9c817cd5f8d293126727a58f896304bd0a4fbf4",
        "lib\/External\/Scanner.php": "4aac5ac9ad794137f40bd8fd4133453d91df6ec805f899112dc59bc0d0b849351818efbdc7ced457f0a0a06133b8851f7e584594bbecbd830226045d5170a486",
        "lib\/External\/Storage.php": "c8c0bd9cd39738b12e8481e855a3faea2f78a3fd3b756bb5b52cc4a0aa2dda95393fa19a74c4cf0d56afd147af698b213f66e8a51d3aa0c182b6b9192b5559da",
        "lib\/External\/Watcher.php": "dad35760a7293cb86ffccbf56de024512f159b9bbfd426f53737a2fcbcb5359add691c35e51fb577833e7dd46698279e2f39dc282915807ddef1e111f9f099e3",
        "lib\/Helper.php": "91287eec2312ebf0788675ca039583d080c817d4ccda6dfe2f4bc680073d19aa3871832e982691db08b84f0f3fa05346e58c6f68f12966f3d8f1264c83a31ef9",
        "lib\/Hooks.php": "fd9d69063a4e74168131c1dfc0bf7d39ff13b4024e1389a36408654aef3acf1943bf6e0142ad6b526979dc65a1eef87031dcde8e8ecc21cc2daba1f5aac502d0",
        "lib\/ISharedStorage.php": "d8dc35999b6520a00743f475fc3478112accb2327a974df738b065bdd726a4bd00888f02a033c57bc7cd215c7b28b786878886a7e801110b028b77cb14770dc4",
        "lib\/Listener\/LegacyBeforeTemplateRenderedListener.php": "236726072a6d5c754e167541f5563c4f3ec482f00aac1c01267614cba79160ce70c1b1c65555a7df75fe627dd751b2782914a815355e0afaf2ce86aff86f551f",
        "lib\/Listener\/LoadAdditionalListener.php": "8cc3dd90d6b6c057352611b2444a2cb1163deb141339c57cb0a03ca1da2d0927c36a4ac1ce16e1c97b0d1388aa41cf6a37bb1eb5f6c83c23b328b7593e992952",
        "lib\/Listener\/LoadSidebarListener.php": "ad86e786d9b417b97541b53c2326de701967831d6506f9cb1e54e362773b0124fc5890e293f15c64be5bed42ad22dc379da3092552e09c24835ca9a3f179fb96",
        "lib\/Listener\/ShareInteractionListener.php": "04dc6ee4c1070b068a5f18fca17c2805c9d6bc899bf7f08364cc3ce601fd76d1f106b42981a22e58f72aeecbc503a10809420d5db0bb5023996ba399b4da377a",
        "lib\/Listener\/UserAddedToGroupListener.php": "65e80a7ce91798be347b126c6b59f9b84ae31ca9630501384df6d400e5a9f3975417781658c838967f0f66aa635c20e1102a983e99bbd5401c5967dae1db8bb1",
        "lib\/Listener\/UserShareAcceptanceListener.php": "78b749d62df2bc45314d978495f8625f3ff4af0974a9f6377e1be34d1cff2df6a8d7f482bf7b87431c401ebe58573c7bfcbe00ebe26f0b96acbd9641f8e159e5",
        "lib\/Middleware\/OCSShareAPIMiddleware.php": "14cf0a5bb2d582507fedd10a0351df98c16063c80108cfd3fa11d065a57605c28feda2ff444fa05a78b7d6149e82f53c0774ead4134230e3e5b61c171b0ec98b",
        "lib\/Middleware\/ShareInfoMiddleware.php": "9dac2e0dc06b7ee2be7982192b3c148f1bd824ce6441bf2ca838c136d5337b753a171aaaf77cc17ed0e89a638ebfc7270fbde826345ed2a7521679c011a03d0b",
        "lib\/Middleware\/SharingCheckMiddleware.php": "a9118b9b5812afb6a8e196205c9aa3c8cf7077883d7b57c14d009cba04e273526ccf6c143f0ad4475a083f336275506ab0f95a99783bdf6b8d2ea9ce5482b9d8",
        "lib\/Migration\/OwncloudGuestShareType.php": "590484adccf3d7d8f59b495de55c2823c20784b09a711fe09d392e8b6c49f94bf1cb9600668d8da8912f72ae76e62c80301f2e5c8c2371382c076ac1b853237f",
        "lib\/Migration\/SetAcceptedStatus.php": "f6b3e571502ab2dc30f5bf680f66559860c7b5bbde927547724edf9e19b05bdbf18b3fd232ccc58e5dea7dc1a7fc79772ddc73aa3ab48d040bc780cc75364e1a",
        "lib\/Migration\/SetPasswordColumn.php": "419592768a8ba9cbad932e275067c0756b9f145cb73c4c87a1ef23cca9a217b0d10649181faab966645dc8cb73b422f0013f59a129cae61530434aa725e2fa12",
        "lib\/Migration\/Version11300Date20201120141438.php": "f9ebb58e35758db52dc2613eb0ccd5d948107531a17c6b7521084ec7adfe1a328347da309e52825dac8ba2e011e9a52df9cb0be35295dfeb45c8b8b98581de44",
        "lib\/Migration\/Version21000Date20201223143245.php": "9ff579fc95aea21daf6aeb81de549468db711c57d395f2bd5cbf7768174a8e281a4daa76aa9e5964296ebd8f9a5f7734f47c7963eb3552a82a0c34ba76055437",
        "lib\/MountProvider.php": "a2640f883394cea60de41f6271fa3e2475ac3cf0d0b9060dd292e4592b7c511fa7ab5e8052eef5108b156a974127114f7d55b70a7d98dddc20a75f577853057d",
        "lib\/Notification\/Listener.php": "2051b5605fe478222aee3275ab4d0b09ab383eeb7f211124ca8e3deea1f4fdda07ca8de3f9364208bcc3862baabdd6812fc7b0356992578d7c9aee29e1a05386",
        "lib\/Notification\/Notifier.php": "b2b475e88f0786362bc7811843b4a4909c3e308d68e711afdfcc5823947345b15ec2f533cf91704aa4c8a7dd39e2fa141d3f9bb760dae0cf254647e5f7c3bb8c",
        "lib\/Scanner.php": "7ab04b58b8ec3196b6cb09cf7e303d82dc29a3ada36989527c94e692ede09a16d50f11fb64394a84edd9704509da965c526dca493f24c83768fe39da20b26578",
        "lib\/Settings\/Personal.php": "7fd0ba137311f974d288164f641ec95c04f9e61e3faafce407832ea294f102aed9596e1aaf7cb6ac930927c90fe522cb4d8a3cd91844a42387db54b2e80daa2d",
        "lib\/ShareBackend\/File.php": "271e805c3e82074767a7e1a4f3a41454e795657f6ceb82b9a15b11732418ab9498fee770815312e69db10ba4b434293283eb0352537df9a544e5f5138fc2173d",
        "lib\/ShareBackend\/Folder.php": "5c3eb5b9ceb9d053ab3d7b5723421d4e92f11cabaa582d03deebb62e7f61cb4319d5d5991bb0f61376ac031a953885e549ff5769c818b094f18ebe727a420586",
        "lib\/SharedMount.php": "05da82f8c6cc31bed0eea1d69e28465ee34282b27c4d6a0745859fe3590daa252c230b99b56e11368c73de1a19141a18fb1d2965c82666183c433f5d3c650a47",
        "lib\/SharedStorage.php": "9e75c68a89643d7fba6114d0a311ccca1ac4a4185c6e85ceccb6052d030033562c38ef4fb7c548baa2b5d14d7a8a10c2734c2434a7174e557209b705b7fabb43",
        "lib\/Updater.php": "4cea005acfb1ad76273028ea8eeebdd47e2a3eb3b905cb268e82720c2432dc5de6b0aeb16cdb86cfa98f9804d14d79339afc3d69e4a4c879422ee3daceadf392",
        "list.php": "a14cb817f878fe8c877637008cd8bee1148253a17f3b4cfec6e65512f9b434491000d588a6aab64ab4a119c51d0fe487d377862c51f31e6bc8f05779364acb7a",
        "public.php": "acbd71b8d9affb686792abb23353b54d46c2866f764855007ab03a6fa3ea31c4dd923abe58ef603b766e90e8c4860be2fa74af36c187e32589c9d9cef03c5e82",
        "templates\/Settings\/personal.php": "2d1517822a46bb7170098813e3519d90d3b5d90eb9a535608fbbbb60e86f878d9c2e8966cce718d47cd40e9b5c5fd3ee9601790c64bf14ab5fe78bd890f4b802",
        "templates\/list.php": "f9ab0def787f3b0011c42856af9c83b32720e5172dafff9e828c62a2ebd078d82335dfe1e3a79b451fa7c30c1ff82e30de22035f77412822fff00cada110726f",
        "templates\/part.404.php": "ec7679d989b5d1964a9ac6e9003bca7e54630ef50ceaf36e1f70198d16bc2c274c222ff15c7554c0546d3b8d1ba7c76f113555dc728664fce6e2df92b9175221",
        "templates\/public.php": "9b5362fe2091330b612ed419e3867f2b456439baa60bddc1bcd9b7aefe09a2138032ca934f67c3f84146c49826fe1ed12e352fd81c8dd69826fb050cdd6132aa"
    },
    "signature": "hLaljT1EF6+MyAFhY4bMaA5Af4muhvkgt6\/76XVkhZf1jLYF6rLf9d8i03tqn2HQRYUWWp+YCuX\/QHWjJ4gIs9pmXJPz9NCa0qMzhZOH49xYmi4LdZbkavZ2DY9k+3DVH\/AvIPMnjYo0hNlc+fK+bHzVM7RQjxKLFeOF7MhpbGrvYaOFj3L8y37RRHH0+1Luwwg5ebTmmXrlmdcOfKXqU8SqBpla1zTDaHz9eC4kIs\/WNAtiNj14Ik6AAEiwETb2U9Pou9qi9oG6k\/uyzpcJFenU\/ae0pmhGNU88lFdygbnE0OFrqS3Y2TKGWDtU9m391bjCmvY0oIxAK5lsnwa3sw==",
    "certificate": "-----BEGIN CERTIFICATE-----\r\nMIIEojCCA4qgAwIBAgICEAAwDQYJKoZIhvcNAQELBQAwezELMAkGA1UEBhMCREUx\r\nGzAZBgNVBAgMEkJhZGVuLVd1ZXJ0dGVtYmVyZzEXMBUGA1UECgwOTmV4dGNsb3Vk\r\nIEdtYkgxNjA0BgNVBAMMLU5leHRjbG91ZCBDb2RlIFNpZ25pbmcgSW50ZXJtZWRp\r\nYXRlIEF1dGhvcml0eTAeFw0xNjA2MTIyMTA1MDZaFw00MTA2MDYyMTA1MDZaMGYx\r\nCzAJBgNVBAYTAkRFMRswGQYDVQQIDBJCYWRlbi1XdWVydHRlbWJlcmcxEjAQBgNV\r\nBAcMCVN0dXR0Z2FydDEXMBUGA1UECgwOTmV4dGNsb3VkIEdtYkgxDTALBgNVBAMM\r\nBGNvcmUwggEiMA0GCSqGSIb3DQEBAQUAA4IBDwAwggEKAoIBAQDUxcrn2DC892IX\r\n8+dJjZVh9YeHF65n2ha886oeAizOuHBdWBfzqt+GoUYTOjqZF93HZMcwy0P+xyCf\r\nQqak5Ke9dybN06RXUuGP45k9UYBp03qzlUzCDalrkj+Jd30LqcSC1sjRTsfuhc+u\r\nvH1IBuBnf7SMUJUcoEffbmmpAPlEcLHxlUGlGnz0q1e8UFzjbEFj3JucMO4ys35F\r\nqZS4dhvCngQhRW3DaMlQLXEUL9k3kFV+BzlkPzVZEtSmk4HJujFCnZj1vMcjQBg\/\r\nBqq1HCmUB6tulnGcxUzt\/Z\/oSIgnuGyENeke077W3EyryINL7EIyD4Xp7sxLizTM\r\nFCFCjjH1AgMBAAGjggFDMIIBPzAJBgNVHRMEAjAAMBEGCWCGSAGG+EIBAQQEAwIG\r\nQDAzBglghkgBhvhCAQ0EJhYkT3BlblNTTCBHZW5lcmF0ZWQgU2VydmVyIENlcnRp\r\nZmljYXRlMB0GA1UdDgQWBBQwc1H9AL8pRlW2e5SLCfPPqtqc0DCBpQYDVR0jBIGd\r\nMIGagBRt6m6qqTcsPIktFz79Ru7DnnjtdKF+pHwwejELMAkGA1UEBhMCREUxGzAZ\r\nBgNVBAgMEkJhZGVuLVd1ZXJ0dGVtYmVyZzESMBAGA1UEBwwJU3R1dHRnYXJ0MRcw\r\nFQYDVQQKDA5OZXh0Y2xvdWQgR21iSDEhMB8GA1UEAwwYTmV4dGNsb3VkIFJvb3Qg\r\nQXV0aG9yaXR5ggIQADAOBgNVHQ8BAf8EBAMCBaAwEwYDVR0lBAwwCgYIKwYBBQUH\r\nAwEwDQYJKoZIhvcNAQELBQADggEBADZ6+HV\/+0NEH3nahTBFxO6nKyR\/VWigACH0\r\nnaV0ecTcoQwDjKDNNFr+4S1WlHdwITlnNabC7v9rZ\/6QvbkrOTuO9fOR6azp1EwW\r\n2pixWqj0Sb9\/dSIVRpSq+jpBE6JAiX44dSR7zoBxRB8DgVO2Afy0s80xEpr5JAzb\r\nNYuPS7M5UHdAv2dr16fDcDIvn+vk92KpNh1NTeZFjBbRVQ9DXrgkRGW34TK8uSLI\r\nYG6jnfJ6eJgTaO431ywWPXNg1mUMaT\/+QBOgB299QVCKQU+lcZWptQt+RdsJUm46\r\nNY\/nARy4Oi4uOe88SuWITj9KhrFmEvrUlgM8FvoXA1ldrR7KiEg=\r\n-----END CERTIFICATE-----"
}